<?xml version="1.0" encoding="UTF-8" standalone="no"?>
<!-- Created with Inkscape (http://www.inkscape.org/) -->

<svg
   width="1200"
   height="600"
   viewBox="0 0 317.50001 158.75"
   version="1.1"
   id="svg5"
   inkscape:version="1.1.2 (0a00cf5339, 2022-02-04)"
   sodipodi:docname="all-ships-scaled.svg"
   inkscape:export-filename="/home/sam/rpg/ships-of-elite/all-ships-scaled.png"
   inkscape:export-xdpi="144"
   inkscape:export-ydpi="144"
   xmlns:inkscape="http://www.inkscape.org/namespaces/inkscape"
   xmlns:sodipodi="http://sodipodi.sourceforge.net/DTD/sodipodi-0.dtd"
   xmlns:xlink="http://www.w3.org/1999/xlink"
   xmlns="http://www.w3.org/2000/svg"
   xmlns:svg="http://www.w3.org/2000/svg">
  <sodipodi:namedview
     id="namedview7"
     pagecolor="#ffffff"
     bordercolor="#666666"
     borderopacity="1.0"
     inkscape:pageshadow="2"
     inkscape:pageopacity="0.0"
     inkscape:pagecheckerboard="0"
     inkscape:document-units="mm"
     showgrid="false"
     inkscape:zoom="1.1794893"
     inkscape:cx="308.18423"
     inkscape:cy="356.51023"
     inkscape:window-width="2560"
     inkscape:window-height="1343"
     inkscape:window-x="1200"
     inkscape:window-y="240"
     inkscape:window-maximized="1"
     inkscape:current-layer="layer2"
     units="px"
     width="1400px" />
  <defs
     id="defs2" />
  <g
     inkscape:groupmode="layer"
     id="layer3"
     inkscape:label="Background"
     style="display:inline"
     sodipodi:insensitive="true">
    <rect
       style="opacity:0.273334;fill:#ffffff;stroke:#ffffff;stroke-width:0.264583;stroke-linecap:round;stroke-linejoin:round;stop-color:#000000"
       id="rect33159"
       width="319.74945"
       height="160.81895"
       x="-1.1830209"
       y="-0.77769327"
       rx="1.0583333"
       ry="1.0583333" />
  </g>
  <g
     inkscape:label="Graphics"
     inkscape:groupmode="layer"
     id="layer1"
     style="display:inline">
    <image
       width="282.15866"
       height="158.71426"
       preserveAspectRatio="none"
       xlink:href="all-render.png"
       id="image17"
       x="17.09127"
       y="-1.7998571"
       style="stroke-width:3.20072" />
  </g>
  <g
     inkscape:groupmode="layer"
     id="layer2"
     inkscape:label="Labels">
    <text
       xml:space="preserve"
       style="font-style:normal;font-variant:normal;font-weight:normal;font-stretch:normal;font-size:3.52778px;line-height:1.25;font-family:Anton;-inkscape-font-specification:Anton;font-variant-ligatures:none;text-align:center;text-anchor:middle;stroke-width:0.264583"
       x="124.96819"
       y="14.127192"
       id="text2422"><tspan
         sodipodi:role="line"
         id="tspan2420"
         style="font-style:normal;font-variant:normal;font-weight:normal;font-stretch:normal;font-size:3.52778px;font-family:Anton;-inkscape-font-specification:Anton;text-align:center;text-anchor:middle;stroke-width:0.264583"
         x="124.96819"
         y="14.127192">Boa</tspan><tspan
         sodipodi:role="line"
         style="font-style:normal;font-variant:normal;font-weight:normal;font-stretch:normal;font-size:3.52778px;font-family:Anton;-inkscape-font-specification:Anton;text-align:center;text-anchor:middle;stroke-width:0.264583"
         x="124.96819"
         y="18.536919"
         id="tspan5954">1,200t</tspan></text>
    <text
       xml:space="preserve"
       style="font-style:normal;font-variant:normal;font-weight:normal;font-stretch:normal;font-size:3.52778px;line-height:1.25;font-family:Anton;-inkscape-font-specification:Anton;font-variant-ligatures:none;text-align:center;text-anchor:middle;stroke-width:0.264583"
       x="23.559828"
       y="16.443607"
       id="text7410"><tspan
         sodipodi:role="line"
         id="tspan7408"
         style="font-style:normal;font-variant:normal;font-weight:normal;font-stretch:normal;font-size:3.52778px;font-family:Anton;-inkscape-font-specification:Anton;text-align:center;text-anchor:middle;stroke-width:0.264583"
         x="23.559828"
         y="16.443607">Adder</tspan><tspan
         sodipodi:role="line"
         style="font-style:normal;font-variant:normal;font-weight:normal;font-stretch:normal;font-size:3.52778px;font-family:Anton;-inkscape-font-specification:Anton;text-align:center;text-anchor:middle;stroke-width:0.264583"
         x="23.559828"
         y="20.853333"
         id="tspan7412">100t</tspan></text>
    <text
       xml:space="preserve"
       style="font-style:normal;font-variant:normal;font-weight:normal;font-stretch:normal;font-size:3.52778px;line-height:1.25;font-family:Anton;-inkscape-font-specification:Anton;font-variant-ligatures:none;text-align:center;text-anchor:middle;stroke-width:0.264583"
       x="298.56638"
       y="52.688694"
       id="text8978"><tspan
         sodipodi:role="line"
         id="tspan8976"
         style="font-style:normal;font-variant:normal;font-weight:normal;font-stretch:normal;font-size:3.52778px;font-family:Anton;-inkscape-font-specification:Anton;text-align:center;text-anchor:middle;stroke-width:0.264583"
         x="298.56638"
         y="52.688694">Cobra I</tspan><tspan
         sodipodi:role="line"
         style="font-style:normal;font-variant:normal;font-weight:normal;font-stretch:normal;font-size:3.52778px;font-family:Anton;-inkscape-font-specification:Anton;text-align:center;text-anchor:middle;stroke-width:0.264583"
         x="298.56638"
         y="57.098415"
         id="tspan8980">200t</tspan></text>
    <text
       xml:space="preserve"
       style="font-style:normal;font-variant:normal;font-weight:normal;font-stretch:normal;font-size:3.52778px;line-height:1.25;font-family:Anton;-inkscape-font-specification:Anton;font-variant-ligatures:none;text-align:center;text-anchor:middle;stroke-width:0.264583"
       x="291.42267"
       y="81.582329"
       id="text8978-3"><tspan
         sodipodi:role="line"
         style="font-style:normal;font-variant:normal;font-weight:normal;font-stretch:normal;font-size:3.52778px;font-family:Anton;-inkscape-font-specification:Anton;text-align:center;text-anchor:middle;stroke-width:0.264583"
         x="291.42267"
         y="81.582329"
         id="tspan8980-7">Anaconda</tspan><tspan
         sodipodi:role="line"
         style="font-style:normal;font-variant:normal;font-weight:normal;font-stretch:normal;font-size:3.52778px;font-family:Anton;-inkscape-font-specification:Anton;text-align:center;text-anchor:middle;stroke-width:0.264583"
         x="291.42267"
         y="85.99205"
         id="tspan457">2,400t</tspan></text>
    <text
       xml:space="preserve"
       style="font-style:normal;font-variant:normal;font-weight:normal;font-stretch:normal;font-size:3.52778px;line-height:1.25;font-family:Anton;-inkscape-font-specification:Anton;font-variant-ligatures:none;text-align:center;text-anchor:middle;stroke-width:0.264583"
       x="91.03727"
       y="64.752052"
       id="text10744"><tspan
         sodipodi:role="line"
         id="tspan10742"
         style="font-style:normal;font-variant:normal;font-weight:normal;font-stretch:normal;font-size:3.52778px;font-family:Anton;-inkscape-font-specification:Anton;text-align:center;text-anchor:middle;stroke-width:0.264583"
         x="91.03727"
         y="64.752052">Cobra III</tspan><tspan
         sodipodi:role="line"
         style="font-style:normal;font-variant:normal;font-weight:normal;font-stretch:normal;font-size:3.52778px;font-family:Anton;-inkscape-font-specification:Anton;text-align:center;text-anchor:middle;stroke-width:0.264583"
         x="91.03727"
         y="69.161781"
         id="tspan10746">300t</tspan></text>
    <text
       xml:space="preserve"
       style="font-style:normal;font-variant:normal;font-weight:normal;font-stretch:normal;font-size:3.52778px;line-height:1.25;font-family:Anton;-inkscape-font-specification:Anton;font-variant-ligatures:none;text-align:center;text-anchor:middle;stroke-width:0.264583"
       x="192.80637"
       y="54.233063"
       id="text10744-3"><tspan
         sodipodi:role="line"
         id="tspan10742-6"
         style="font-style:normal;font-variant:normal;font-weight:normal;font-stretch:normal;font-size:3.52778px;font-family:Anton;-inkscape-font-specification:Anton;text-align:center;text-anchor:middle;stroke-width:0.264583"
         x="192.80637"
         y="54.233063">Asp II</tspan><tspan
         sodipodi:role="line"
         style="font-style:normal;font-variant:normal;font-weight:normal;font-stretch:normal;font-size:3.52778px;font-family:Anton;-inkscape-font-specification:Anton;text-align:center;text-anchor:middle;stroke-width:0.264583"
         x="192.80637"
         y="58.642788"
         id="tspan10746-7">200t</tspan></text>
    <text
       xml:space="preserve"
       style="font-style:normal;font-variant:normal;font-weight:normal;font-stretch:normal;font-size:3.52778px;line-height:1.25;font-family:Anton;-inkscape-font-specification:Anton;font-variant-ligatures:none;text-align:center;text-anchor:middle;stroke-width:0.264583"
       x="74.224556"
       y="114.04754"
       id="text12774"><tspan
         sodipodi:role="line"
         id="tspan12772"
         style="font-style:normal;font-variant:normal;font-weight:normal;font-stretch:normal;font-size:3.52778px;font-family:Anton;-inkscape-font-specification:Anton;text-align:center;text-anchor:middle;stroke-width:0.264583"
         x="74.224556"
         y="114.04754">Python</tspan><tspan
         sodipodi:role="line"
         style="font-style:normal;font-variant:normal;font-weight:normal;font-stretch:normal;font-size:3.52778px;font-family:Anton;-inkscape-font-specification:Anton;text-align:center;text-anchor:middle;stroke-width:0.264583"
         x="74.224556"
         y="118.45727"
         id="tspan12776">800t</tspan></text>
    <text
       xml:space="preserve"
       style="font-style:normal;font-variant:normal;font-weight:normal;font-stretch:normal;font-size:3.52778px;line-height:1.25;font-family:Anton;-inkscape-font-specification:Anton;font-variant-ligatures:none;text-align:center;text-anchor:middle;stroke-width:0.264583"
       x="160.27496"
       y="154.96828"
       id="text12774-3"><tspan
         sodipodi:role="line"
         style="font-style:normal;font-variant:normal;font-weight:normal;font-stretch:normal;font-size:3.52778px;font-family:Anton;-inkscape-font-specification:Anton;text-align:center;text-anchor:middle;stroke-width:0.264583"
         x="160.27496"
         y="154.96828"
         id="tspan12776-7">&lt;- 100m -&gt;</tspan></text>
    <text
       xml:space="preserve"
       style="font-style:normal;font-variant:normal;font-weight:normal;font-stretch:normal;font-size:3.52778px;line-height:1.25;font-family:Anton;-inkscape-font-specification:Anton;font-variant-ligatures:none;text-align:center;text-anchor:middle;stroke-width:0.264583"
       x="243.22232"
       y="144.75146"
       id="text12774-5"><tspan
         sodipodi:role="line"
         style="font-style:normal;font-variant:normal;font-weight:normal;font-stretch:normal;font-size:3.52778px;font-family:Anton;-inkscape-font-specification:Anton;text-align:center;text-anchor:middle;stroke-width:0.264583"
         x="243.22232"
         y="144.75146"
         id="tspan12776-5">&lt;- 10m -&gt;</tspan></text>
    <text
       xml:space="preserve"
       style="font-style:normal;font-variant:normal;font-weight:normal;font-stretch:normal;font-size:3.52778px;line-height:1.25;font-family:Anton;-inkscape-font-specification:Anton;font-variant-ligatures:none;text-align:center;text-anchor:middle;stroke-width:0.264583"
       x="20.907579"
       y="39.887295"
       id="text14342"><tspan
         sodipodi:role="line"
         id="tspan14340"
         style="font-style:normal;font-variant:normal;font-weight:normal;font-stretch:normal;font-size:3.52778px;font-family:Anton;-inkscape-font-specification:Anton;text-align:center;text-anchor:middle;stroke-width:0.264583"
         x="20.907579"
         y="39.887295">Transporter</tspan><tspan
         sodipodi:role="line"
         style="font-style:normal;font-variant:normal;font-weight:normal;font-stretch:normal;font-size:3.52778px;font-family:Anton;-inkscape-font-specification:Anton;text-align:center;text-anchor:middle;stroke-width:0.264583"
         x="20.907579"
         y="44.29702"
         id="tspan14344">70t</tspan></text>
    <text
       xml:space="preserve"
       style="font-style:normal;font-variant:normal;font-weight:normal;font-stretch:normal;font-size:3.52778px;line-height:1.25;font-family:Anton;-inkscape-font-specification:Anton;font-variant-ligatures:none;text-align:center;text-anchor:middle;stroke-width:0.264583"
       x="101.36781"
       y="134.9279"
       id="text14342-3"><tspan
         sodipodi:role="line"
         id="tspan14340-6"
         style="font-style:normal;font-variant:normal;font-weight:normal;font-stretch:normal;font-size:3.52778px;font-family:Anton;-inkscape-font-specification:Anton;text-align:center;text-anchor:middle;stroke-width:0.264583"
         x="101.36781"
         y="134.9279">Fer-de-lance</tspan><tspan
         sodipodi:role="line"
         style="font-style:normal;font-variant:normal;font-weight:normal;font-stretch:normal;font-size:3.52778px;font-family:Anton;-inkscape-font-specification:Anton;text-align:center;text-anchor:middle;stroke-width:0.264583"
         x="101.36781"
         y="139.33762"
         id="tspan14344-7">400t</tspan></text>
    <text
       xml:space="preserve"
       style="font-style:normal;font-variant:normal;font-weight:normal;font-stretch:normal;font-size:3.52778px;line-height:1.25;font-family:Anton;-inkscape-font-specification:Anton;font-variant-ligatures:none;text-align:center;text-anchor:middle;stroke-width:0.264583"
       x="31.298265"
       y="64.095703"
       id="text18154"><tspan
         sodipodi:role="line"
         id="tspan18152"
         style="font-style:normal;font-variant:normal;font-weight:normal;font-stretch:normal;font-size:3.52778px;font-family:Anton;-inkscape-font-specification:Anton;text-align:center;text-anchor:middle;stroke-width:0.264583"
         x="31.298265"
         y="64.095703">Orbit Shuttle</tspan><tspan
         sodipodi:role="line"
         style="font-style:normal;font-variant:normal;font-weight:normal;font-stretch:normal;font-size:3.52778px;font-family:Anton;-inkscape-font-specification:Anton;text-align:center;text-anchor:middle;stroke-width:0.264583"
         x="31.298265"
         y="68.505424"
         id="tspan18156">20t</tspan></text>
    <text
       xml:space="preserve"
       style="font-style:normal;font-variant:normal;font-weight:normal;font-stretch:normal;font-size:3.52778px;line-height:1.25;font-family:Anton;-inkscape-font-specification:Anton;font-variant-ligatures:none;text-align:center;text-anchor:middle;stroke-width:0.264583"
       x="293.2207"
       y="17.541609"
       id="text27048"><tspan
         sodipodi:role="line"
         id="tspan27046"
         style="font-style:normal;font-variant:normal;font-weight:normal;font-stretch:normal;font-size:3.52778px;font-family:Anton;-inkscape-font-specification:Anton;text-align:center;text-anchor:middle;stroke-width:0.264583"
         x="293.2207"
         y="17.541609">Viper</tspan><tspan
         sodipodi:role="line"
         style="font-style:normal;font-variant:normal;font-weight:normal;font-stretch:normal;font-size:3.52778px;font-family:Anton;-inkscape-font-specification:Anton;text-align:center;text-anchor:middle;stroke-width:0.264583"
         x="293.2207"
         y="21.951334"
         id="tspan28228">50t</tspan></text>
    <text
       xml:space="preserve"
       style="font-style:normal;font-variant:normal;font-weight:normal;font-stretch:normal;font-size:3.52778px;line-height:1.25;font-family:Anton;-inkscape-font-specification:Anton;font-variant-ligatures:none;text-align:center;text-anchor:middle;stroke-width:0.264583"
       x="290.70874"
       y="117.61205"
       id="text29620"><tspan
         sodipodi:role="line"
         id="tspan29618"
         style="font-style:normal;font-variant:normal;font-weight:normal;font-stretch:normal;font-size:3.52778px;font-family:Anton;-inkscape-font-specification:Anton;text-align:center;text-anchor:middle;stroke-width:0.264583"
         x="290.70874"
         y="117.61205">Mamba</tspan><tspan
         sodipodi:role="line"
         style="font-style:normal;font-variant:normal;font-weight:normal;font-stretch:normal;font-size:3.52778px;font-family:Anton;-inkscape-font-specification:Anton;text-align:center;text-anchor:middle;stroke-width:0.264583"
         x="290.70874"
         y="122.02177"
         id="tspan29622">20t</tspan></text>
    <text
       xml:space="preserve"
       style="font-style:normal;font-variant:normal;font-weight:normal;font-stretch:normal;font-size:3.52778px;line-height:1.25;font-family:Anton;-inkscape-font-specification:Anton;font-variant-ligatures:none;text-align:center;text-anchor:middle;stroke-width:0.264583"
       x="26.046329"
       y="108.41373"
       id="text31210"><tspan
         sodipodi:role="line"
         id="tspan31208"
         style="font-style:normal;font-variant:normal;font-weight:normal;font-stretch:normal;font-size:3.52778px;font-family:Anton;-inkscape-font-specification:Anton;text-align:center;text-anchor:middle;stroke-width:0.264583"
         x="26.046329"
         y="108.41373">Sidewinder</tspan><tspan
         sodipodi:role="line"
         style="font-style:normal;font-variant:normal;font-weight:normal;font-stretch:normal;font-size:3.52778px;font-family:Anton;-inkscape-font-specification:Anton;text-align:center;text-anchor:middle;stroke-width:0.264583"
         x="26.046329"
         y="112.82345"
         id="tspan31212">20t</tspan></text>
    <text
       xml:space="preserve"
       style="font-style:normal;font-variant:normal;font-weight:normal;font-stretch:normal;font-size:3.52778px;line-height:1.25;font-family:Anton;-inkscape-font-specification:Anton;font-variant-ligatures:none;text-align:center;text-anchor:middle;stroke-width:0.264583"
       x="289.95734"
       y="102.33496"
       id="text32998"><tspan
         sodipodi:role="line"
         id="tspan32996"
         style="font-style:normal;font-variant:normal;font-weight:normal;font-stretch:normal;font-size:3.52778px;font-family:Anton;-inkscape-font-specification:Anton;text-align:center;text-anchor:middle;stroke-width:0.264583"
         x="289.95734"
         y="102.33496">Krait</tspan><tspan
         sodipodi:role="line"
         style="font-style:normal;font-variant:normal;font-weight:normal;font-stretch:normal;font-size:3.52778px;font-family:Anton;-inkscape-font-specification:Anton;text-align:center;text-anchor:middle;stroke-width:0.264583"
         x="289.95734"
         y="106.74469"
         id="tspan33000">10t</tspan></text>
    <text
       xml:space="preserve"
       style="font-style:normal;font-variant:normal;font-weight:normal;font-stretch:normal;font-size:3.52778px;line-height:1.25;font-family:Anton;-inkscape-font-specification:Anton;font-variant-ligatures:none;text-align:center;text-anchor:middle;stroke-width:0.264583"
       x="289.80188"
       y="131.5202"
       id="text35776"><tspan
         sodipodi:role="line"
         id="tspan35774"
         style="font-style:normal;font-variant:normal;font-weight:normal;font-stretch:normal;font-size:3.52778px;font-family:Anton;-inkscape-font-specification:Anton;text-align:center;text-anchor:middle;stroke-width:0.264583"
         x="289.80188"
         y="131.5202">Gecko</tspan><tspan
         sodipodi:role="line"
         style="font-style:normal;font-variant:normal;font-weight:normal;font-stretch:normal;font-size:3.52778px;font-family:Anton;-inkscape-font-specification:Anton;text-align:center;text-anchor:middle;stroke-width:0.264583"
         x="289.80188"
         y="135.92992"
         id="tspan35778">8t</tspan></text>
    <text
       xml:space="preserve"
       style="font-style:normal;font-variant:normal;font-weight:normal;font-stretch:normal;font-size:3.52778px;line-height:1.25;font-family:Anton;-inkscape-font-specification:Anton;font-variant-ligatures:none;text-align:center;text-anchor:middle;stroke-width:0.264583"
       x="62.258339"
       y="100.09423"
       id="text39126"><tspan
         sodipodi:role="line"
         id="tspan39124"
         style="font-style:normal;font-variant:normal;font-weight:normal;font-stretch:normal;font-size:3.52778px;font-family:Anton;-inkscape-font-specification:Anton;text-align:center;text-anchor:middle;stroke-width:0.264583"
         x="62.258339"
         y="100.09423">Worm</tspan><tspan
         sodipodi:role="line"
         style="font-style:normal;font-variant:normal;font-weight:normal;font-stretch:normal;font-size:3.52778px;font-family:Anton;-inkscape-font-specification:Anton;text-align:center;text-anchor:middle;stroke-width:0.264583"
         x="62.258339"
         y="104.50395"
         id="tspan39128">10t</tspan></text>
    <text
       xml:space="preserve"
       style="font-style:normal;font-variant:normal;font-weight:normal;font-stretch:normal;font-size:3.52778px;line-height:1.25;font-family:Anton;-inkscape-font-specification:Anton;font-variant-ligatures:none;text-align:center;text-anchor:middle;stroke-width:0.264583"
       x="17.96693"
       y="130.30838"
       id="text39126-3"><tspan
         sodipodi:role="line"
         id="tspan39124-6"
         style="font-style:normal;font-variant:normal;font-weight:normal;font-stretch:normal;font-size:3.52778px;font-family:Anton;-inkscape-font-specification:Anton;text-align:center;text-anchor:middle;stroke-width:0.264583"
         x="17.96693"
         y="130.30838">Moray Star Boat</tspan><tspan
         sodipodi:role="line"
         style="font-style:normal;font-variant:normal;font-weight:normal;font-stretch:normal;font-size:3.52778px;font-family:Anton;-inkscape-font-specification:Anton;text-align:center;text-anchor:middle;stroke-width:0.264583"
         x="17.96693"
         y="134.71811"
         id="tspan39128-7">200t</tspan></text>
    <text
       xml:space="preserve"
       style="font-size:4.9389px;line-height:1.25;font-family:Roboto;-inkscape-font-specification:Roboto;font-variant-ligatures:none;stroke-width:0.264583"
       x="14.106326"
       y="135.33072"
       id="text673"><tspan
         sodipodi:role="line"
         id="tspan671"
         style="stroke-width:0.264583"
         x="14.106326"
         y="135.33072" /></text>
  </g>
</svg>
