<?xml version="1.0" encoding="UTF-8" standalone="no"?>
<!-- Created with Inkscape (http://www.inkscape.org/) -->

<svg
   width="2048"
   height="2048"
   viewBox="0 0 541.86665 541.86668"
   version="1.1"
   id="svg5"
   inkscape:version="1.1.2 (0a00cf5339, 2022-02-04)"
   sodipodi:docname="hull_markings.svg"
   inkscape:export-filename="/opt/data/RPG/Traveller/Publish/Elite Ships/Sidewinder/Textures/hull_markings.png"
   inkscape:export-xdpi="96"
   inkscape:export-ydpi="96"
   xmlns:inkscape="http://www.inkscape.org/namespaces/inkscape"
   xmlns:sodipodi="http://sodipodi.sourceforge.net/DTD/sodipodi-0.dtd"
   xmlns="http://www.w3.org/2000/svg"
   xmlns:svg="http://www.w3.org/2000/svg">
  <sodipodi:namedview
     id="namedview7"
     pagecolor="#ffffff"
     bordercolor="#666666"
     borderopacity="1.0"
     inkscape:pageshadow="2"
     inkscape:pageopacity="0.0"
     inkscape:pagecheckerboard="0"
     inkscape:document-units="mm"
     showgrid="true"
     units="px"
     width="2048px"
     inkscape:zoom="0.64"
     inkscape:cx="950.78125"
     inkscape:cy="1139.0625"
     inkscape:window-width="2560"
     inkscape:window-height="1349"
     inkscape:window-x="1200"
     inkscape:window-y="240"
     inkscape:window-maximized="1"
     inkscape:current-layer="layer1">
    <inkscape:grid
       type="xygrid"
       id="grid844"
       units="px"
       spacingx="4.2333333"
       spacingy="4.2333333" />
  </sodipodi:namedview>
  <defs
     id="defs2" />
  <g
     inkscape:label="Layer 1"
     inkscape:groupmode="layer"
     id="layer1">
    <path
       style="fill:#ff6600;fill-opacity:0.997975;stroke:#ff6600;stroke-width:2.11667;stroke-linecap:round;stroke-linejoin:round;stroke-opacity:0.999962;stop-color:#000000"
       d="m 275.16666,148.16667 h 21.16667 l 84.66667,127 h -42.33334 l -42.33333,-63.5 h -21.16667 l -42.33333,63.5 H 190.5 Z"
       id="path918" />
    <path
       style="fill:#ff6600;fill-opacity:0.997975;stroke:#ff6600;stroke-width:2.11667;stroke-linecap:round;stroke-linejoin:round;stroke-opacity:0.999962;stop-color:#000000"
       d="m 254,275.16667 h 63.5 l -25.4,-38.1 h -12.7 l -25.4,38.1"
       id="path920" />
    <path
       style="fill:#ff6600;fill-opacity:0.997975;stroke:#ff6600;stroke-width:2.11667;stroke-linecap:round;stroke-linejoin:round;stroke-opacity:0.999962;stop-color:#000000"
       d="m 254,283.63334 h 63.5 l -25.4,38.1 h -12.7 l -25.4,-38.1"
       id="path920-5" />
    <circle
       style="fill:#ffffff;fill-opacity:0.997975;stroke:#ff6600;stroke-width:2.11667;stroke-linecap:round;stroke-linejoin:round;stroke-opacity:0.999962;stop-color:#000000"
       id="path1056"
       cx="285.75"
       cy="179.91667"
       r="10.583333" />
    <path
       style="fill:#ffffff;fill-opacity:0.997975;stroke:#ff6600;stroke-width:2.11667;stroke-linecap:round;stroke-linejoin:round;stroke-opacity:0.999962;stop-color:#000000"
       d="m 368.3,270.93334 h -25.4 l -38.1,-59.26667 h 25.4 l 38.1,59.26667"
       id="path1113" />
    <path
       style="fill:#ffffff;fill-opacity:0.997975;stroke:#ff6600;stroke-width:2.11667;stroke-linecap:round;stroke-linejoin:round;stroke-opacity:0.999962;stop-color:#000000"
       d="m 203.2,270.93334 h 25.4 l 38.1,-59.26667 h -25.4 l -38.1,59.26667"
       id="path1113-8" />
    <path
       style="fill:#ffffff;fill-opacity:0.997975;stroke:#000000;stroke-width:2.11667;stroke-linecap:round;stroke-linejoin:round;stroke-opacity:0.999962;stop-color:#000000"
       d="m 105.83333,486.83333 21.16667,-63.5 21.16667,63.5 L 169.33334,431.8 190.5,486.83333 211.66667,419.1 232.83334,486.83333 254,427.56666 275.16667,486.83333 296.33333,427.56666 317.5,486.83333 338.66667,444.5 l 21.16666,42.33333 21.16667,-76.2 21.16667,76.2 21.16666,-63.5 21.16667,63.5"
       id="path1260" />
    <text
       xml:space="preserve"
       style="font-size:25.4px;line-height:1.25;font-family:Archivo;-inkscape-font-specification:'Archivo, Normal';font-variant-ligatures:none;stroke-width:0.264583"
       x="145.07722"
       y="62.316959"
       id="text2920"><tspan
         sodipodi:role="line"
         id="tspan2918"
         style="font-style:normal;font-variant:normal;font-weight:normal;font-stretch:normal;font-size:25.4px;font-family:'Black Ops One';-inkscape-font-specification:'Black Ops One';stroke-width:0.264583"
         x="145.07722"
         y="62.316959">SIDEWINDER   F-04</tspan></text>
  </g>
</svg>
