<?xml version="1.0" encoding="UTF-8" standalone="no"?>
<!-- Created with Inkscape (http://www.inkscape.org/) -->

<svg
   width="2048"
   height="2048"
   viewBox="0 0 541.86665 541.86668"
   version="1.1"
   id="svg5"
   inkscape:version="1.1.2 (0a00cf5339, 2022-02-04)"
   sodipodi:docname="stealth_markings.svg"
   inkscape:export-filename="/opt/data/RPG/Traveller/Publish/Elite Ships/Sidewinder/Textures/hull_markings.png"
   inkscape:export-xdpi="96"
   inkscape:export-ydpi="96"
   xmlns:inkscape="http://www.inkscape.org/namespaces/inkscape"
   xmlns:sodipodi="http://sodipodi.sourceforge.net/DTD/sodipodi-0.dtd"
   xmlns="http://www.w3.org/2000/svg"
   xmlns:svg="http://www.w3.org/2000/svg">
  <sodipodi:namedview
     id="namedview7"
     pagecolor="#ffffff"
     bordercolor="#666666"
     borderopacity="1.0"
     inkscape:pageshadow="2"
     inkscape:pageopacity="0.0"
     inkscape:pagecheckerboard="0"
     inkscape:document-units="mm"
     showgrid="true"
     units="px"
     width="2048px"
     inkscape:zoom="0.90509668"
     inkscape:cx="938.02134"
     inkscape:cy="417.08252"
     inkscape:window-width="2560"
     inkscape:window-height="1403"
     inkscape:window-x="3760"
     inkscape:window-y="240"
     inkscape:window-maximized="1"
     inkscape:current-layer="layer1"
     inkscape:snap-smooth-nodes="true">
    <inkscape:grid
       type="xygrid"
       id="grid844"
       units="px"
       spacingx="4.2333333"
       spacingy="4.2333333" />
  </sodipodi:namedview>
  <defs
     id="defs2" />
  <g
     inkscape:label="Layer 1"
     inkscape:groupmode="layer"
     id="layer1">
    <circle
       style="fill:#000000;fill-opacity:0.995733;stroke:#ffffff;stroke-width:1.05833333;stroke-linecap:round;stroke-linejoin:round;stroke-opacity:0.999962;stop-color:#000000;stroke-miterlimit:4;stroke-dasharray:none"
       id="path8335"
       cx="285.75"
       cy="173.56667"
       r="6.3499999" />
    <path
       style="fill:#800000;fill-opacity:0.997975;stroke:#000000;stroke-width:2.11667;stroke-linecap:round;stroke-linejoin:round;stroke-opacity:0.999962;stop-color:#000000"
       d="m 105.83333,486.83333 21.16667,-63.5 21.16667,63.5 L 169.33334,431.8 190.5,486.83333 211.66667,419.1 232.83334,486.83333 254,427.56666 275.16667,486.83333 296.33333,427.56666 317.5,486.83333 338.66667,444.5 l 21.16666,42.33333 21.16667,-76.2 21.16667,76.2 21.16666,-63.5 21.16667,63.5"
       id="path1260" />
    <text
       xml:space="preserve"
       style="font-size:25.4px;line-height:1.25;font-family:Archivo;-inkscape-font-specification:'Archivo, Normal';font-variant-ligatures:none;stroke-width:0.264583;fill:#808080"
       x="145.07722"
       y="62.316959"
       id="text2920"><tspan
         sodipodi:role="line"
         id="tspan2918"
         style="font-style:normal;font-variant:normal;font-weight:normal;font-stretch:normal;font-size:25.4px;font-family:'Black Ops One';-inkscape-font-specification:'Black Ops One';stroke-width:0.264583;fill:#808080"
         x="145.07722"
         y="62.316959">SIDEWINDER   F-404</tspan></text>
    <path
       style="fill:#000000;fill-opacity:0.995733;stroke:#ffffff;stroke-width:1.05833333;stroke-linecap:round;stroke-linejoin:round;stroke-opacity:0.999962;stop-color:#000000;stroke-miterlimit:4;stroke-dasharray:none"
       d="m 283.63333,321.73333 h 4.23333 l 8.46667,-110.06667 H 317.5 l -4.23334,-8.46667 H 292.1 v -29.63333 h -12.7 l 0,29.63334 -21.16667,-10e-6 -4.23334,8.46667 h 21.16667 z"
       id="path7744"
       sodipodi:nodetypes="ccccccccccccc" />
    <rect
       style="fill:#000000;fill-opacity:0.995733;stroke:#ffffff;stroke-width:1.05833333;stroke-linecap:round;stroke-linejoin:round;stroke-opacity:0.999962;stop-color:#000000;stroke-miterlimit:4;stroke-dasharray:none"
       id="rect8037"
       width="21.166674"
       height="4.2333279"
       x="275.16666"
       y="194.73334"
       rx="4.2333155"
       ry="0" />
    <rect
       style="fill:#000000;fill-opacity:0.995733;stroke:#ffffff;stroke-width:1.05833333;stroke-linecap:round;stroke-linejoin:round;stroke-opacity:0.999962;stop-color:#000000;stroke-miterlimit:4;stroke-dasharray:none"
       id="rect8141"
       width="21.166666"
       height="4.2333331"
       x="275.16666"
       y="190.5"
       rx="4.2333069"
       ry="4.2333069" />
    <rect
       style="fill:#000000;fill-opacity:0.995733;stroke:#ffffff;stroke-width:1.05833333;stroke-linecap:round;stroke-linejoin:round;stroke-opacity:0.999962;stop-color:#000000;stroke-miterlimit:4;stroke-dasharray:none"
       id="rect8143"
       width="21.166666"
       height="4.2333331"
       x="275.16666"
       y="186.26666"
       rx="4.2333069"
       ry="4.2333069" />
    <rect
       style="fill:#000000;fill-opacity:0.995733;stroke:#ffffff;stroke-width:1.05833333;stroke-linecap:round;stroke-linejoin:round;stroke-opacity:0.999962;stop-color:#000000;stroke-miterlimit:4;stroke-dasharray:none"
       id="rect8145"
       width="21.166666"
       height="4.2333331"
       x="275.16666"
       y="182.03333"
       rx="4.2333069"
       ry="4.2333069" />
    <rect
       style="fill:#000000;fill-opacity:0.995733;stroke:#ffffff;stroke-width:1.05833333;stroke-linecap:round;stroke-linejoin:round;stroke-opacity:0.999962;stop-color:#000000;stroke-miterlimit:4;stroke-dasharray:none"
       id="rect8147"
       width="21.166666"
       height="4.2333331"
       x="275.16666"
       y="177.8"
       rx="4.2333069"
       ry="4.2333069" />
    <rect
       style="fill:#000000;fill-opacity:0.995733;stroke:#ffffff;stroke-width:1.05833333;stroke-linecap:round;stroke-linejoin:round;stroke-opacity:0.999962;stop-color:#000000;stroke-miterlimit:4;stroke-dasharray:none"
       id="rect8149"
       width="29.63332"
       height="4.2333379"
       x="270.93332"
       y="173.56667"
       rx="4.2333069"
       ry="2.0978274" />
    <rect
       style="fill:#000000;fill-opacity:0.995733;stroke:#ffffff;stroke-width:1.05833333;stroke-linecap:round;stroke-linejoin:round;stroke-opacity:0.999962;stop-color:#000000;stroke-miterlimit:4;stroke-dasharray:none"
       id="rect8151"
       width="21.166666"
       height="4.2333331"
       x="275.16666"
       y="198.96666"
       rx="4.2333069"
       ry="2.0978284" />
    <path
       style="fill:#ffffff;fill-opacity:0.995733;stroke:#ffffff;stroke-width:1.05833;stroke-linecap:round;stroke-linejoin:round;stroke-miterlimit:4;stroke-dasharray:none;stroke-opacity:0.999962;stop-color:#000000"
       d="m 279.4,211.66666 h 12.7 l -4.23334,50.80001 h -4.23333 L 279.4,211.66666"
       id="path8921" />
  </g>
</svg>
