<?xml version="1.0" encoding="UTF-8" standalone="no"?>
<!-- Created with Inkscape (http://www.inkscape.org/) -->

<svg
   id="svg2"
   sodipodi:version="0.32"
   inkscape:version="1.1.2 (0a00cf5339, 2022-02-04)"
   width="2048"
   height="2048"
   sodipodi:docname="Hull_Textures.svg"
   version="1.0"
   inkscape:output_extension="org.inkscape.output.svg.inkscape"
   inkscape:export-filename="/opt/data/RPG/Traveller/Publish/Elite Ships/Krait/Textures/Hull_Textures.png"
   inkscape:export-xdpi="96"
   inkscape:export-ydpi="96"
   xmlns:inkscape="http://www.inkscape.org/namespaces/inkscape"
   xmlns:sodipodi="http://sodipodi.sourceforge.net/DTD/sodipodi-0.dtd"
   xmlns="http://www.w3.org/2000/svg"
   xmlns:svg="http://www.w3.org/2000/svg"
   xmlns:rdf="http://www.w3.org/1999/02/22-rdf-syntax-ns#"
   xmlns:cc="http://creativecommons.org/ns#"
   xmlns:dc="http://purl.org/dc/elements/1.1/">
  <metadata
     id="metadata7">
    <rdf:RDF>
      <cc:Work
         rdf:about="">
        <dc:format>image/svg+xml</dc:format>
        <dc:type
           rdf:resource="http://purl.org/dc/dcmitype/StillImage" />
      </cc:Work>
    </rdf:RDF>
  </metadata>
  <defs
     id="defs5">
    <inkscape:perspective
       sodipodi:type="inkscape:persp3d"
       inkscape:vp_x="0 : 2000.989 : 1"
       inkscape:vp_y="0 : 1000 : 0"
       inkscape:vp_z="500 : 2000.989 : 1"
       inkscape:persp3d-origin="250 : 1917.6557 : 1"
       id="perspective2670" />
  </defs>
  <sodipodi:namedview
     inkscape:window-height="1343"
     inkscape:window-width="2560"
     inkscape:pageshadow="2"
     inkscape:pageopacity="0.0"
     borderopacity="1.0"
     bordercolor="#666666"
     pagecolor="#ffffff"
     id="base"
     inkscape:showpageshadow="false"
     inkscape:zoom="0.5025987"
     inkscape:cx="1122.1676"
     inkscape:cy="975.92771"
     inkscape:window-x="1200"
     inkscape:window-y="240"
     inkscape:current-layer="svg2"
     showgrid="false"
     inkscape:pagecheckerboard="0"
     inkscape:window-maximized="1" />
  <path
     style="fill:#d40000;stroke:none;stroke-width:4;stroke-miterlimit:4;stroke-dasharray:none"
     d="m 981.00453,925.14802 c -24.59822,-1.22015 -60.98043,-4.43027 -66.89047,-5.90192 -3.34453,-0.83284 -10.77197,-2.44652 -16.50544,-3.58597 -5.73347,-1.1395 -11.96667,-3.14775 -13.85155,-4.46278 -1.88487,-1.31504 -4.6213,-2.39791 -6.08096,-2.4064 -4.7841,-0.0276 -39.05231,-21.45226 -53.14483,-33.22615 -24.22671,-20.24054 -41.70452,-41.86391 -54.73773,-67.72086 -7.88442,-15.64214 -10.37473,-23.15003 -15.78407,-47.58651 -2.87906,-13.00613 -3.3294,-20.02104 -2.67685,-41.69791 0.72824,-24.19015 1.21793,-27.30863 6.82093,-43.43539 7.86159,-22.62764 15.24713,-37.04079 26.9658,-52.62472 10.8083,-14.37328 39.32852,-41.71908 50.34975,-48.2764 l 7.35705,-4.37725 -1.27609,5.729 c -2.17772,9.77666 -1.47476,35.19633 1.12417,40.65139 5.37045,11.27239 9.58763,19.1562 12.32799,23.04654 2.85677,4.05563 2.73045,4.27042 -9.70739,16.50543 -29.2043,28.72808 -37.93007,53.67978 -31.08616,88.89219 4.53092,23.3117 15.27107,44.58605 30.71895,60.84867 34.39025,36.20399 85.72999,55.48139 153.45104,57.6189 25.66833,0.81017 32.03863,0.44208 48.64763,-2.81097 23.4663,-4.59621 40.6318,-9.54515 52.2956,-15.07726 4.8731,-2.31131 9.4549,-4.20243 10.1818,-4.20243 2.9745,0 18.1482,-11.08636 21.6425,-15.81267 4.6045,-6.22787 6.5864,-23.6787 3.8395,-33.80645 -1.052,-3.87883 -4.2706,-10.61219 -7.1525,-14.96295 -4.3108,-6.50809 -7.6259,-8.99931 -18.6995,-14.05214 -11.5596,-5.27462 -21.9861,-8.4579 -61.4403,-18.75826 -3.4554,-0.90208 -8.3932,-1.64015 -10.973,-1.64015 -2.5799,0 -6.0593,-0.73249 -7.7321,-1.6278 -1.6728,-0.89525 -13.4752,-4.03878 -26.2275,-6.98557 -23.54973,-5.44187 -56.70782,-16.08745 -59.82872,-19.20837 -0.9429,-0.94287 -3.02692,-1.71434 -4.6312,-1.71434 -2.78439,0 -16.46542,-7.45975 -29.33008,-15.99261 -6.60561,-4.38137 -33.02659,-30.53186 -40.23456,-39.82265 -5.53702,-7.137 -14.32264,-24.34207 -18.73912,-36.69726 -9.96125,-27.86669 -8.62134,-51.77651 4.2113,-75.14795 11.7923,-21.47674 25.28851,-33.84625 46.44068,-42.56367 5.49457,-2.26446 9.99014,-4.75519 9.99014,-5.53491 0,-0.77976 3.07538,-1.41772 6.8342,-1.41772 6.16387,0 8.28217,1.3706 21.59585,13.97311 8.11889,7.6852 16.79128,17.43643 19.27193,21.66939 l 4.51032,7.69628 -6.81449,7.02187 c -8.99251,9.26616 -14.13111,20.50939 -14.09721,30.84452 0.0377,11.51635 4.12156,27.69724 8.4771,33.58844 2.01171,2.72099 3.65767,5.61612 3.65767,6.4336 0,5.25674 45.53535,40.1373 59.63839,45.68365 3.033,1.19281 9.4238,3.913 14.2017,6.04484 17.0401,7.60314 47.4651,16.6578 72.1027,21.45816 30.9702,6.03422 63.0589,15.06053 69.7648,19.62434 2.5364,1.72621 5.6638,3.17036 6.9497,3.20922 1.2858,0.0391 5.0448,2.38431 8.3532,5.21221 3.3084,2.8279 7.0689,5.14166 8.3567,5.14166 4.9079,0 21.6355,18.21422 26.8469,29.23285 4.9622,10.49152 5.1662,11.8313 4.4977,29.5361 -0.6757,17.89703 -1.0179,19.26797 -9.7811,39.17975 -11.3175,25.71524 -15.3291,31.62034 -32.9508,48.50385 -5.0474,4.83593 -12.8658,11.35926 -17.3741,14.49627 -14.6386,10.18585 -55.0824,28.93359 -72.4813,33.59883 -20.796,5.57609 -76.3837,9.42413 -111.19457,7.69733 z M 1237.978,774.45659 c -3.7465,-3.22267 -4.7363,-5.63836 -4.8747,-11.89759 -0.2501,-11.30966 3.8338,-18.56346 20.3801,-36.19883 18.8282,-20.06742 21.997,-28.12776 18.6082,-47.33363 -1.2217,-6.9242 -2.9656,-14.01013 -3.8753,-15.74647 -1.7248,-3.29197 -0.287,-6.36426 8.5073,-18.17914 l 4.2423,-5.69941 4.5285,6.56811 c 13.147,19.06835 16.3541,41.84195 8.3221,59.0939 -4.7462,10.19423 -12.156,18.25356 -28.7447,31.26428 -6.2113,4.87162 -13.9132,11.58559 -17.1153,14.91991 -4.9618,5.16667 -5.6461,6.86397 -4.6307,11.48686 0.6552,2.98348 3.1492,7.75121 5.5421,10.59511 l 4.3508,5.17063 h -5.2697 c -3.0121,0 -7.2839,-1.73247 -9.971,-4.04373 z m -92.7878,-90.84239 c -32.4154,-8.43779 -48.7334,-14.70211 -63.5955,-24.4137 -4.8767,-3.18673 -9.651,-5.79405 -10.6094,-5.79405 -6.0981,0 -50.7018,-44.08838 -65.0359,-64.28434 -3.052,-4.30009 -8.34943,-11.11365 -11.77214,-15.14121 -11.56661,-13.61069 -15.30203,-18.69736 -24.60563,-33.50638 -14.50492,-23.08826 -25.05217,-36.29655 -34.99947,-43.82969 -14.37243,-10.8843 -19.42278,-12.53026 -30.83469,-10.04925 -5.28201,1.14833 -11.55827,2.86856 -13.94721,3.82273 -7.88624,3.14983 -34.86791,3.46885 -55.59726,0.65734 -10.98915,-1.49042 -26.11247,-3.55056 -33.60739,-4.57805 -13.26194,-1.81808 -13.79992,-1.7484 -20.07365,2.59931 -10.29233,7.13257 -16.6037,5.43827 -26.04621,-6.99214 -6.31091,-8.30788 -6.16452,-12.18637 0.2474,-6.55493 2.14627,1.88503 6.81316,4.9213 10.37082,6.74728 l 6.46853,3.31993 5.16648,-4.94982 c 4.62016,-4.4264 6.04896,-4.84963 13.51175,-4.00244 9.48905,1.07719 11.86817,-0.46675 37.50432,-24.33865 7.43728,-6.92545 15.84202,-13.7913 18.67721,-15.25743 2.83518,-1.46614 5.15488,-3.29381 5.15488,-4.06151 0,-1.72591 13.45497,-7.74227 25.51897,-11.41078 25.00191,-7.60276 57.08579,0.65046 85.27287,21.93552 13.56812,10.24577 60.39312,57.18804 70.02472,70.19999 3.6128,4.88091 9.0281,11.52653 12.0339,14.76801 3.0059,3.2415 10.4895,11.80663 16.6304,19.03366 21.1302,24.86722 47.5278,39.6673 89.6786,50.27903 21.853,5.50166 24.3159,5.79738 30.4047,3.65097 15.295,-5.39175 26.386,-20.21255 24.129,-32.24332 -1.9616,-10.45628 -23.143,-29.32434 -45.6337,-40.64984 -27.3856,-13.79036 -45.9071,-17.6664 -91.2692,-19.10013 l -36.0035,-1.13796 -21.6492,-26.03052 c -14.41235,-17.32904 -20.96217,-26.46109 -19.59378,-27.31856 2.43567,-1.52623 55.85598,-14.05194 73.28948,-17.18458 6.6891,-1.20194 22.3258,-2.1636 34.7483,-2.13705 19.0039,0.0406 26.1689,0.89152 45.1728,5.36471 12.4224,2.92404 25.3228,6.27113 28.6673,7.43794 27.7847,9.69341 56.8431,27.38619 76.9252,46.83746 25.3854,24.58793 36.8373,47.85246 38.7359,78.69188 2.7235,44.24067 -11.8734,78.31884 -40.9715,95.65249 -5.3383,3.18 -13.5771,7.13628 -18.3084,8.79175 -21.3624,7.47464 -65.0339,10.16005 -84.1798,5.17633 z M 880.04859,457.80524 c 0.58004,-1.51152 0.96209,-4.4434 0.84904,-6.51531 -0.14911,-2.73328 -0.51144,-2.33667 -1.32014,1.44516 -0.97997,4.58288 -1.84674,5.21224 -7.17843,5.21224 -5.3557,0 -6.1293,-0.57026 -6.62379,-4.88294 -0.30794,-2.68564 0.37417,-6.00843 1.5158,-7.38401 1.25748,-1.51517 1.37396,-2.50106 0.29551,-2.50106 -2.79363,0 -5.28291,9.12702 -3.67486,13.47396 1.15953,3.13452 2.78159,3.90018 8.26254,3.90018 4.61598,0 7.16053,-0.88808 7.87433,-2.74822 z m 304.93581,128.72613 c -11.3713,-6.18153 -104.3924,-35.63236 -112.5457,-35.63236 -1.9635,0 -9.1484,-6.38559 -17.5941,-15.63673 -12.3707,-13.55054 -13.7287,-15.63668 -10.1781,-15.63632 8.4288,0.001 44.9767,6.73636 54.7565,10.09124 5.5826,1.91506 13.227,4.00873 16.9874,4.65262 12.949,2.21718 65.0814,28.01628 79.0411,39.11558 l 5.4629,4.34353 -3.9727,5.61658 c -4.4501,6.29163 -5.5418,6.5734 -11.9573,3.08586 z M 948.428,582.93914 c -4.28391,-4.42453 3.25873,-25.15056 12.17535,-33.45583 l 4.31783,-4.0218 3.02695,4.89051 c 1.66485,2.68979 6.64526,9.5143 11.06762,15.16558 l 8.04063,10.2751 -7.14036,3.19681 c -7.68648,3.44136 -29.34927,6.15859 -31.48802,3.94963 z"
     id="path1308"
     sodipodi:nodetypes="csssssssssscccssssssssssssssssssssssssssscccssssssssssssssssccsssscccsssscccccssssssssssssscccssssssssssssscccsssssssssccssssssssccssssscccccccccccc" />
  <text
     xml:space="preserve"
     style="font-size:64px;line-height:1.25;font-family:Dhurjati;-inkscape-font-specification:Dhurjati;font-variant-ligatures:none"
     x="690.08044"
     y="1670.8511"
     id="text2917"><tspan
       sodipodi:role="line"
       id="tspan2915"
       x="690.08044"
       y="1670.8511"
       style="font-style:normal;font-variant:normal;font-weight:normal;font-stretch:normal;font-size:64px;font-family:Bevan;-inkscape-font-specification:Bevan;fill:#ffffff;stroke:#000000">KT/31  Star Fighter</tspan></text>
</svg>
