<?xml version="1.0" encoding="UTF-8" standalone="no"?>
<!-- Created with Inkscape (http://www.inkscape.org/) -->

<svg
   width="210mm"
   height="297mm"
   viewBox="0 0 210 297"
   version="1.1"
   id="svg5"
   inkscape:version="1.1.2 (0a00cf5339, 2022-02-04)"
   sodipodi:docname="Cobra-Deck-Plans.svg"
   inkscape:export-filename="/home/sam/rpg/ships-of-elite/Cobra/Deck Plans/Cobra-Deck-Plans.png"
   inkscape:export-xdpi="300"
   inkscape:export-ydpi="300"
   xmlns:inkscape="http://www.inkscape.org/namespaces/inkscape"
   xmlns:sodipodi="http://sodipodi.sourceforge.net/DTD/sodipodi-0.dtd"
   xmlns:xlink="http://www.w3.org/1999/xlink"
   xmlns="http://www.w3.org/2000/svg"
   xmlns:svg="http://www.w3.org/2000/svg">
  <sodipodi:namedview
     id="namedview7"
     pagecolor="#ffffff"
     bordercolor="#666666"
     borderopacity="1.0"
     inkscape:pageshadow="2"
     inkscape:pageopacity="0.0"
     inkscape:pagecheckerboard="0"
     inkscape:document-units="mm"
     showgrid="true"
     inkscape:zoom="0.83402488"
     inkscape:cx="-142.08209"
     inkscape:cy="314.73881"
     inkscape:window-width="2560"
     inkscape:window-height="1343"
     inkscape:window-x="1200"
     inkscape:window-y="240"
     inkscape:window-maximized="1"
     inkscape:current-layer="layer1">
    <inkscape:grid
       type="xygrid"
       id="grid60"
       units="px"
       spacingx="16.933333"
       spacingy="16.933333" />
  </sodipodi:namedview>
  <defs
     id="defs2" />
  <g
     inkscape:label="Layer 1"
     inkscape:groupmode="layer"
     id="layer1">
    <image
       width="199.82518"
       height="142.73227"
       preserveAspectRatio="none"
       xlink:href="cobra-deck-3-256px.png"
       id="image318"
       x="50.799999"
       y="-24.198938"
       style="stroke-width:3.55911" />
    <image
       width="199.82518"
       height="142.73227"
       preserveAspectRatio="none"
       xlink:href="cobra-deck-1-256px.png"
       id="image294"
       x="-50.799999"
       y="-33.866665"
       style="stroke-width:3.55911" />
    <image
       width="199.82518"
       height="142.73227"
       preserveAspectRatio="none"
       xlink:href="cobra-deck-2-256px.png"
       id="image306"
       x="0"
       y="84.666664"
       style="stroke-width:3.55911" />
    <g
       id="g21187-4"
       transform="translate(82.50021,149.89822)">
      <circle
         style="fill:#ffffff;fill-opacity:0.995733;stroke:#1a1a1a;stroke-width:0.529167;stroke-linecap:round;stroke-linejoin:round;stroke-miterlimit:4;stroke-dasharray:none;stroke-opacity:0.999962;stop-color:#000000"
         id="path34152-12"
         cx="-59.542351"
         cy="76.552757"
         r="3.0644836" />
      <text
         xml:space="preserve"
         style="font-style:normal;font-variant:normal;font-weight:normal;font-stretch:normal;font-size:4.93889px;line-height:1.25;font-family:Roboto;-inkscape-font-specification:Roboto;font-variant-ligatures:none;stroke-width:0.264583"
         x="-60.62635"
         y="78.316818"
         id="text18490-8"><tspan
           sodipodi:role="line"
           id="tspan18488-8"
           style="font-style:normal;font-variant:normal;font-weight:normal;font-stretch:normal;font-size:4.93889px;font-family:Roboto;-inkscape-font-specification:Roboto;stroke-width:0.264583"
           x="-60.62635"
           y="78.316818">1</tspan></text>
    </g>
    <g
       id="g21192-9"
       transform="translate(65.566879,144.56407)">
      <circle
         style="fill:#ffffff;fill-opacity:0.995733;stroke:#1a1a1a;stroke-width:0.529167;stroke-linecap:round;stroke-linejoin:round;stroke-miterlimit:4;stroke-dasharray:none;stroke-opacity:0.999962;stop-color:#000000"
         id="path34152-2-2"
         cx="-42.60902"
         cy="93.486092"
         r="3.0644836" />
      <text
         xml:space="preserve"
         style="font-style:normal;font-variant:normal;font-weight:normal;font-stretch:normal;font-size:4.93889px;line-height:1.25;font-family:Roboto;-inkscape-font-specification:Roboto;font-variant-ligatures:none;stroke-width:0.264583"
         x="-44.017376"
         y="95.265831"
         id="text18490-9-8"><tspan
           sodipodi:role="line"
           id="tspan18488-4-8"
           style="font-style:normal;font-variant:normal;font-weight:normal;font-stretch:normal;font-size:4.93889px;font-family:Roboto;-inkscape-font-specification:Roboto;stroke-width:0.264583"
           x="-44.017376"
           y="95.265831">2</tspan></text>
    </g>
    <g
       id="g21197-8"
       transform="translate(65.566879,139.22989)">
      <circle
         style="fill:#ffffff;fill-opacity:0.995733;stroke:#1a1a1a;stroke-width:0.529167;stroke-linecap:round;stroke-linejoin:round;stroke-miterlimit:4;stroke-dasharray:none;stroke-opacity:0.999962;stop-color:#000000"
         id="path34152-3-6"
         cx="-42.60902"
         cy="110.41943"
         r="3.0644836" />
      <text
         xml:space="preserve"
         style="font-style:normal;font-variant:normal;font-weight:normal;font-stretch:normal;font-size:4.93889px;line-height:1.25;font-family:Roboto;-inkscape-font-specification:Roboto;font-variant-ligatures:none;stroke-width:0.264583"
         x="-43.948647"
         y="112.17506"
         id="text18490-5-8"><tspan
           sodipodi:role="line"
           id="tspan18488-1-3"
           style="font-style:normal;font-variant:normal;font-weight:normal;font-stretch:normal;font-size:4.93889px;font-family:Roboto;-inkscape-font-specification:Roboto;stroke-width:0.264583"
           x="-43.948647"
           y="112.17506">3</tspan></text>
    </g>
    <text
       xml:space="preserve"
       style="font-size:4.9389px;line-height:1.25;font-family:Dhurjati;-inkscape-font-specification:Dhurjati;font-variant-ligatures:none;stroke-width:0.264583"
       x="30.763514"
       y="228.79533"
       id="text28401"><tspan
         sodipodi:role="line"
         id="tspan28399"
         style="font-style:normal;font-variant:normal;font-weight:normal;font-stretch:normal;font-family:Roboto;-inkscape-font-specification:Roboto;stroke-width:0.264583"
         x="30.763514"
         y="228.79533">Fuel</tspan></text>
    <text
       xml:space="preserve"
       style="font-size:4.9389px;line-height:1.25;font-family:Dhurjati;-inkscape-font-specification:Dhurjati;font-variant-ligatures:none;stroke-width:0.264583"
       x="30.884092"
       y="252.07594"
       id="text31639"><tspan
         sodipodi:role="line"
         id="tspan31637"
         style="font-style:normal;font-variant:normal;font-weight:normal;font-stretch:normal;font-family:Roboto;-inkscape-font-specification:Roboto;stroke-width:0.264583"
         x="30.884092"
         y="252.07594">Cargo Hatch/Ramp</tspan></text>
    <text
       xml:space="preserve"
       style="font-size:4.9389px;line-height:1.25;font-family:Dhurjati;-inkscape-font-specification:Dhurjati;font-variant-ligatures:none;stroke-width:0.264583"
       x="30.884092"
       y="240.08086"
       id="text34523"><tspan
         sodipodi:role="line"
         id="tspan34521"
         style="font-style:normal;font-variant:normal;font-weight:normal;font-stretch:normal;font-family:Roboto;-inkscape-font-specification:Roboto;stroke-width:0.264583"
         x="30.884092"
         y="240.08086">Cargo Holds</tspan></text>
    <g
       id="g21197-8-0"
       transform="translate(123.47342,116.03154)">
      <circle
         style="fill:#ffffff;fill-opacity:0.995733;stroke:#1a1a1a;stroke-width:0.529167;stroke-linecap:round;stroke-linejoin:round;stroke-miterlimit:4;stroke-dasharray:none;stroke-opacity:0.999962;stop-color:#000000"
         id="path34152-3-6-9"
         cx="-42.60902"
         cy="110.41943"
         r="3.0644836" />
      <text
         xml:space="preserve"
         style="font-style:normal;font-variant:normal;font-weight:normal;font-stretch:normal;font-size:4.93889px;line-height:1.25;font-family:Roboto;-inkscape-font-specification:Roboto;font-variant-ligatures:none;stroke-width:0.264583"
         x="-43.948647"
         y="112.17506"
         id="text18490-5-8-3"><tspan
           sodipodi:role="line"
           id="tspan18488-1-3-6"
           style="font-style:normal;font-variant:normal;font-weight:normal;font-stretch:normal;font-size:4.93889px;font-family:Roboto;-inkscape-font-specification:Roboto;stroke-width:0.264583"
           x="-43.948647"
           y="112.17506">4</tspan></text>
    </g>
    <g
       id="g21197-8-06"
       transform="translate(123.47342,127.91573)">
      <circle
         style="fill:#ffffff;fill-opacity:0.995733;stroke:#1a1a1a;stroke-width:0.529167;stroke-linecap:round;stroke-linejoin:round;stroke-miterlimit:4;stroke-dasharray:none;stroke-opacity:0.999962;stop-color:#000000"
         id="path34152-3-6-2"
         cx="-42.60902"
         cy="110.41943"
         r="3.0644836" />
      <text
         xml:space="preserve"
         style="font-style:normal;font-variant:normal;font-weight:normal;font-stretch:normal;font-size:4.93889px;line-height:1.25;font-family:Roboto;-inkscape-font-specification:Roboto;font-variant-ligatures:none;stroke-width:0.264583"
         x="-43.948647"
         y="112.17506"
         id="text18490-5-8-6"><tspan
           sodipodi:role="line"
           id="tspan18488-1-3-1"
           style="font-style:normal;font-variant:normal;font-weight:normal;font-stretch:normal;font-size:4.93889px;font-family:Roboto;-inkscape-font-specification:Roboto;stroke-width:0.264583"
           x="-43.948647"
           y="112.17506">5</tspan></text>
    </g>
    <g
       id="g21197-8-8"
       transform="translate(123.47342,139.5149)">
      <circle
         style="fill:#ffffff;fill-opacity:0.995733;stroke:#1a1a1a;stroke-width:0.529167;stroke-linecap:round;stroke-linejoin:round;stroke-miterlimit:4;stroke-dasharray:none;stroke-opacity:0.999962;stop-color:#000000"
         id="path34152-3-6-7"
         cx="-42.60902"
         cy="110.41943"
         r="3.0644836" />
      <text
         xml:space="preserve"
         style="font-style:normal;font-variant:normal;font-weight:normal;font-stretch:normal;font-size:4.93889px;line-height:1.25;font-family:Roboto;-inkscape-font-specification:Roboto;font-variant-ligatures:none;stroke-width:0.264583"
         x="-43.948647"
         y="112.17506"
         id="text18490-5-8-9"><tspan
           sodipodi:role="line"
           id="tspan18488-1-3-2"
           style="font-style:normal;font-variant:normal;font-weight:normal;font-stretch:normal;font-size:4.93889px;font-family:Roboto;-inkscape-font-specification:Roboto;stroke-width:0.264583"
           x="-43.948647"
           y="112.17506">6</tspan></text>
    </g>
    <text
       xml:space="preserve"
       style="font-size:4.9389px;line-height:1.25;font-family:Dhurjati;-inkscape-font-specification:Dhurjati;font-variant-ligatures:none;stroke-width:0.264583"
       x="88.772568"
       y="228.44231"
       id="text28401-4"><tspan
         sodipodi:role="line"
         id="tspan28399-7"
         style="font-style:normal;font-variant:normal;font-weight:normal;font-stretch:normal;font-family:Roboto;-inkscape-font-specification:Roboto;stroke-width:0.264583"
         x="88.772568"
         y="228.44231">Airlocks</tspan></text>
    <text
       xml:space="preserve"
       style="font-size:4.9389px;line-height:1.25;font-family:Dhurjati;-inkscape-font-specification:Dhurjati;font-variant-ligatures:none;stroke-width:0.264583"
       x="88.432533"
       y="240.38252"
       id="text28401-6"><tspan
         sodipodi:role="line"
         id="tspan28399-5"
         style="font-style:normal;font-variant:normal;font-weight:normal;font-stretch:normal;font-family:Roboto;-inkscape-font-specification:Roboto;stroke-width:0.264583"
         x="88.432533"
         y="240.38252">Bridge</tspan></text>
    <text
       xml:space="preserve"
       style="font-size:4.9389px;line-height:1.25;font-family:Dhurjati;-inkscape-font-specification:Dhurjati;font-variant-ligatures:none;stroke-width:0.264583"
       x="88.432533"
       y="251.90556"
       id="text28401-69"><tspan
         sodipodi:role="line"
         id="tspan28399-3"
         style="font-style:normal;font-variant:normal;font-weight:normal;font-stretch:normal;font-family:Roboto;-inkscape-font-specification:Roboto;stroke-width:0.264583"
         x="88.432533"
         y="251.90556">Living Quarters</tspan></text>
    <g
       id="g21197-8-02"
       transform="translate(176.54414,116.03154)">
      <circle
         style="fill:#ffffff;fill-opacity:0.995733;stroke:#1a1a1a;stroke-width:0.529167;stroke-linecap:round;stroke-linejoin:round;stroke-miterlimit:4;stroke-dasharray:none;stroke-opacity:0.999962;stop-color:#000000"
         id="path34152-3-6-3"
         cx="-42.60902"
         cy="110.41943"
         r="3.0644836" />
      <text
         xml:space="preserve"
         style="font-style:normal;font-variant:normal;font-weight:normal;font-stretch:normal;font-size:4.93889px;line-height:1.25;font-family:Roboto;-inkscape-font-specification:Roboto;font-variant-ligatures:none;stroke-width:0.264583"
         x="-43.948647"
         y="112.17506"
         id="text18490-5-8-7"><tspan
           sodipodi:role="line"
           id="tspan18488-1-3-5"
           style="font-style:normal;font-variant:normal;font-weight:normal;font-stretch:normal;font-size:4.93889px;font-family:Roboto;-inkscape-font-specification:Roboto;stroke-width:0.264583"
           x="-43.948647"
           y="112.17506">7</tspan></text>
    </g>
    <text
       xml:space="preserve"
       style="font-size:4.9389px;line-height:1.25;font-family:Dhurjati;-inkscape-font-specification:Dhurjati;font-variant-ligatures:none;stroke-width:0.264583"
       x="141.84328"
       y="227.88042"
       id="text28401-7"><tspan
         sodipodi:role="line"
         id="tspan28399-4"
         style="font-style:normal;font-variant:normal;font-weight:normal;font-stretch:normal;font-family:Roboto;-inkscape-font-specification:Roboto;stroke-width:0.264583"
         x="141.84328"
         y="227.88042">Engineering</tspan></text>
    <g
       id="g12674"
       transform="translate(-5.8255921,3.7678876)">
      <circle
         style="fill:#ffffff;fill-opacity:0.995733;stroke:#1a1a1a;stroke-width:0.529167;stroke-linecap:round;stroke-linejoin:round;stroke-miterlimit:4;stroke-dasharray:none;stroke-opacity:0.999962;stop-color:#000000"
         id="path34152-3-6-3-7"
         cx="139.76071"
         cy="234.56728"
         r="3.0644836" />
      <text
         xml:space="preserve"
         style="font-style:normal;font-variant:normal;font-weight:normal;font-stretch:normal;font-size:4.93889px;line-height:1.25;font-family:Roboto;-inkscape-font-specification:Roboto;font-variant-ligatures:none;stroke-width:0.264583"
         x="138.42108"
         y="236.32289"
         id="text18490-5-8-7-5"><tspan
           sodipodi:role="line"
           id="tspan18488-1-3-5-35"
           style="font-style:normal;font-variant:normal;font-weight:normal;font-stretch:normal;font-size:4.93889px;font-family:Roboto;-inkscape-font-specification:Roboto;stroke-width:0.264583"
           x="138.42108"
           y="236.32289">8</tspan></text>
    </g>
    <text
       xml:space="preserve"
       style="font-size:4.9389px;line-height:1.25;font-family:Dhurjati;-inkscape-font-specification:Dhurjati;font-variant-ligatures:none;stroke-width:0.264583"
       x="141.84328"
       y="240.87207"
       id="text28401-7-6"><tspan
         sodipodi:role="line"
         id="tspan28399-4-2"
         style="font-style:normal;font-variant:normal;font-weight:normal;font-stretch:normal;font-family:Roboto;-inkscape-font-specification:Roboto;stroke-width:0.264583"
         x="141.84328"
         y="240.87207">Fuel Processors</tspan></text>
    <g
       id="g21187-4-3"
       transform="translate(106.7405,-30.434344)">
      <circle
         style="fill:#ffffff;fill-opacity:0.995733;stroke:#1a1a1a;stroke-width:0.529167;stroke-linecap:round;stroke-linejoin:round;stroke-miterlimit:4;stroke-dasharray:none;stroke-opacity:0.999962;stop-color:#000000"
         id="path34152-12-6"
         cx="-59.542351"
         cy="76.552757"
         r="3.0644836" />
      <text
         xml:space="preserve"
         style="font-style:normal;font-variant:normal;font-weight:normal;font-stretch:normal;font-size:4.93889px;line-height:1.25;font-family:Roboto;-inkscape-font-specification:Roboto;font-variant-ligatures:none;stroke-width:0.264583"
         x="-60.62635"
         y="78.316818"
         id="text18490-8-7"><tspan
           sodipodi:role="line"
           id="tspan18488-8-5"
           style="font-style:normal;font-variant:normal;font-weight:normal;font-stretch:normal;font-size:4.93889px;font-family:Roboto;-inkscape-font-specification:Roboto;stroke-width:0.264583"
           x="-60.62635"
           y="78.316818">1</tspan></text>
    </g>
    <g
       id="g21187-4-3-3"
       transform="translate(160.04843,93.817309)">
      <circle
         style="fill:#ffffff;fill-opacity:0.995733;stroke:#1a1a1a;stroke-width:0.529167;stroke-linecap:round;stroke-linejoin:round;stroke-miterlimit:4;stroke-dasharray:none;stroke-opacity:0.999962;stop-color:#000000"
         id="path34152-12-6-6"
         cx="-59.542351"
         cy="76.552757"
         r="3.0644836" />
      <text
         xml:space="preserve"
         style="font-style:normal;font-variant:normal;font-weight:normal;font-stretch:normal;font-size:4.93889px;line-height:1.25;font-family:Roboto;-inkscape-font-specification:Roboto;font-variant-ligatures:none;stroke-width:0.264583"
         x="-60.62635"
         y="78.316818"
         id="text18490-8-7-7"><tspan
           sodipodi:role="line"
           id="tspan18488-8-5-5"
           style="font-style:normal;font-variant:normal;font-weight:normal;font-stretch:normal;font-size:4.93889px;font-family:Roboto;-inkscape-font-specification:Roboto;stroke-width:0.264583"
           x="-60.62635"
           y="78.316818">1</tspan></text>
    </g>
    <g
       id="g21192-9-3"
       transform="translate(143.1151,51.373589)">
      <circle
         style="fill:#ffffff;fill-opacity:0.995733;stroke:#1a1a1a;stroke-width:0.529167;stroke-linecap:round;stroke-linejoin:round;stroke-miterlimit:4;stroke-dasharray:none;stroke-opacity:0.999962;stop-color:#000000"
         id="path34152-2-2-5"
         cx="-42.60902"
         cy="93.486092"
         r="3.0644836" />
      <text
         xml:space="preserve"
         style="font-style:normal;font-variant:normal;font-weight:normal;font-stretch:normal;font-size:4.93889px;line-height:1.25;font-family:Roboto;-inkscape-font-specification:Roboto;font-variant-ligatures:none;stroke-width:0.264583"
         x="-44.017376"
         y="95.265831"
         id="text18490-9-8-6"><tspan
           sodipodi:role="line"
           id="tspan18488-4-8-2"
           style="font-style:normal;font-variant:normal;font-weight:normal;font-stretch:normal;font-size:4.93889px;font-family:Roboto;-inkscape-font-specification:Roboto;stroke-width:0.264583"
           x="-44.017376"
           y="95.265831">2</tspan></text>
    </g>
    <g
       id="g21197-8-9"
       transform="translate(143.1151,10.626034)">
      <circle
         style="fill:#ffffff;fill-opacity:0.995733;stroke:#1a1a1a;stroke-width:0.529167;stroke-linecap:round;stroke-linejoin:round;stroke-miterlimit:4;stroke-dasharray:none;stroke-opacity:0.999962;stop-color:#000000"
         id="path34152-3-6-1"
         cx="-42.60902"
         cy="110.41943"
         r="3.0644836" />
      <text
         xml:space="preserve"
         style="font-style:normal;font-variant:normal;font-weight:normal;font-stretch:normal;font-size:4.93889px;line-height:1.25;font-family:Roboto;-inkscape-font-specification:Roboto;font-variant-ligatures:none;stroke-width:0.264583"
         x="-43.948647"
         y="112.17506"
         id="text18490-5-8-2"><tspan
           sodipodi:role="line"
           id="tspan18488-1-3-7"
           style="font-style:normal;font-variant:normal;font-weight:normal;font-stretch:normal;font-size:4.93889px;font-family:Roboto;-inkscape-font-specification:Roboto;stroke-width:0.264583"
           x="-43.948647"
           y="112.17506">3</tspan></text>
    </g>
    <g
       id="g21197-8-0-0"
       transform="translate(214.43689,45.393829)">
      <circle
         style="fill:#ffffff;fill-opacity:0.995733;stroke:#1a1a1a;stroke-width:0.529167;stroke-linecap:round;stroke-linejoin:round;stroke-miterlimit:4;stroke-dasharray:none;stroke-opacity:0.999962;stop-color:#000000"
         id="path34152-3-6-9-9"
         cx="-42.60902"
         cy="110.41943"
         r="3.0644836" />
      <text
         xml:space="preserve"
         style="font-style:normal;font-variant:normal;font-weight:normal;font-stretch:normal;font-size:4.93889px;line-height:1.25;font-family:Roboto;-inkscape-font-specification:Roboto;font-variant-ligatures:none;stroke-width:0.264583"
         x="-43.948647"
         y="112.17506"
         id="text18490-5-8-3-3"><tspan
           sodipodi:role="line"
           id="tspan18488-1-3-6-6"
           style="font-style:normal;font-variant:normal;font-weight:normal;font-stretch:normal;font-size:4.93889px;font-family:Roboto;-inkscape-font-specification:Roboto;stroke-width:0.264583"
           x="-43.948647"
           y="112.17506">4</tspan></text>
    </g>
    <g
       id="g21197-8-06-0"
       transform="translate(193.40226,-71.578164)">
      <circle
         style="fill:#ffffff;fill-opacity:0.995733;stroke:#1a1a1a;stroke-width:0.529167;stroke-linecap:round;stroke-linejoin:round;stroke-miterlimit:4;stroke-dasharray:none;stroke-opacity:0.999962;stop-color:#000000"
         id="path34152-3-6-2-6"
         cx="-42.60902"
         cy="110.41943"
         r="3.0644836" />
      <text
         xml:space="preserve"
         style="font-style:normal;font-variant:normal;font-weight:normal;font-stretch:normal;font-size:4.93889px;line-height:1.25;font-family:Roboto;-inkscape-font-specification:Roboto;font-variant-ligatures:none;stroke-width:0.264583"
         x="-43.948647"
         y="112.17506"
         id="text18490-5-8-6-2"><tspan
           sodipodi:role="line"
           id="tspan18488-1-3-1-6"
           style="font-style:normal;font-variant:normal;font-weight:normal;font-stretch:normal;font-size:4.93889px;font-family:Roboto;-inkscape-font-specification:Roboto;stroke-width:0.264583"
           x="-43.948647"
           y="112.17506">5</tspan></text>
    </g>
    <g
       id="g21197-8-8-1"
       transform="translate(193.40226,-49.433099)">
      <circle
         style="fill:#ffffff;fill-opacity:0.995733;stroke:#1a1a1a;stroke-width:0.529167;stroke-linecap:round;stroke-linejoin:round;stroke-miterlimit:4;stroke-dasharray:none;stroke-opacity:0.999962;stop-color:#000000"
         id="path34152-3-6-7-8"
         cx="-42.60902"
         cy="110.41943"
         r="3.0644836" />
      <text
         xml:space="preserve"
         style="font-style:normal;font-variant:normal;font-weight:normal;font-stretch:normal;font-size:4.93889px;line-height:1.25;font-family:Roboto;-inkscape-font-specification:Roboto;font-variant-ligatures:none;stroke-width:0.264583"
         x="-43.948647"
         y="112.17506"
         id="text18490-5-8-9-7"><tspan
           sodipodi:role="line"
           id="tspan18488-1-3-2-9"
           style="font-style:normal;font-variant:normal;font-weight:normal;font-stretch:normal;font-size:4.93889px;font-family:Roboto;-inkscape-font-specification:Roboto;stroke-width:0.264583"
           x="-43.948647"
           y="112.17506">6</tspan></text>
    </g>
    <g
       id="g21197-8-8-1-9"
       transform="translate(182.14817,56.992166)">
      <circle
         style="fill:#ffffff;fill-opacity:0.995733;stroke:#1a1a1a;stroke-width:0.529167;stroke-linecap:round;stroke-linejoin:round;stroke-miterlimit:4;stroke-dasharray:none;stroke-opacity:0.999962;stop-color:#000000"
         id="path34152-3-6-7-8-1"
         cx="-42.60902"
         cy="110.41943"
         r="3.0644836" />
      <text
         xml:space="preserve"
         style="font-style:normal;font-variant:normal;font-weight:normal;font-stretch:normal;font-size:4.93889px;line-height:1.25;font-family:Roboto;-inkscape-font-specification:Roboto;font-variant-ligatures:none;stroke-width:0.264583"
         x="-43.948647"
         y="112.17506"
         id="text18490-5-8-9-7-2"><tspan
           sodipodi:role="line"
           id="tspan18488-1-3-2-9-7"
           style="font-style:normal;font-variant:normal;font-weight:normal;font-stretch:normal;font-size:4.93889px;font-family:Roboto;-inkscape-font-specification:Roboto;stroke-width:0.264583"
           x="-43.948647"
           y="112.17506">6</tspan></text>
    </g>
    <g
       id="g21197-8-02-2"
       transform="translate(143.1151,96.372981)">
      <circle
         style="fill:#ffffff;fill-opacity:0.995733;stroke:#1a1a1a;stroke-width:0.529167;stroke-linecap:round;stroke-linejoin:round;stroke-miterlimit:4;stroke-dasharray:none;stroke-opacity:0.999962;stop-color:#000000"
         id="path34152-3-6-3-0"
         cx="-42.60902"
         cy="110.41943"
         r="3.0644836" />
      <text
         xml:space="preserve"
         style="font-style:normal;font-variant:normal;font-weight:normal;font-stretch:normal;font-size:4.93889px;line-height:1.25;font-family:Roboto;-inkscape-font-specification:Roboto;font-variant-ligatures:none;stroke-width:0.264583"
         x="-43.948647"
         y="112.17506"
         id="text18490-5-8-7-2"><tspan
           sodipodi:role="line"
           id="tspan18488-1-3-5-3"
           style="font-style:normal;font-variant:normal;font-weight:normal;font-stretch:normal;font-size:4.93889px;font-family:Roboto;-inkscape-font-specification:Roboto;stroke-width:0.264583"
           x="-43.948647"
           y="112.17506">7</tspan></text>
    </g>
    <text
       xml:space="preserve"
       style="font-size:4.9389px;line-height:1.25;font-family:Roboto;-inkscape-font-specification:Roboto;font-variant-ligatures:none;stroke-width:0.264583"
       x="32.746258"
       y="15.868006"
       id="text1293"><tspan
         sodipodi:role="line"
         id="tspan1291"
         style="stroke-width:0.264583"
         x="32.746258"
         y="15.868006">Deck 1 (Lower)</tspan></text>
    <text
       xml:space="preserve"
       style="font-size:4.9389px;line-height:1.25;font-family:Roboto;-inkscape-font-specification:Roboto;font-variant-ligatures:none;stroke-width:0.264583"
       x="92.732773"
       y="94.23053"
       id="text2683"><tspan
         sodipodi:role="line"
         id="tspan2681"
         style="stroke-width:0.264583"
         x="92.732773"
         y="94.23053">Deck 2</tspan></text>
    <text
       xml:space="preserve"
       style="font-size:4.9389px;line-height:1.25;font-family:Roboto;-inkscape-font-specification:Roboto;font-variant-ligatures:none;stroke-width:0.264583"
       x="134.27727"
       y="15.868006"
       id="text3875"><tspan
         sodipodi:role="line"
         id="tspan3873"
         style="stroke-width:0.264583"
         x="134.27727"
         y="15.868006">Deck 3 (Upper)</tspan></text>
    <g
       id="g21197-8-0-0-3"
       transform="translate(164.19425,-62.964683)">
      <circle
         style="fill:#ffffff;fill-opacity:0.995733;stroke:#1a1a1a;stroke-width:0.529167;stroke-linecap:round;stroke-linejoin:round;stroke-miterlimit:4;stroke-dasharray:none;stroke-opacity:0.999962;stop-color:#000000"
         id="path34152-3-6-9-9-5"
         cx="-42.60902"
         cy="110.41943"
         r="3.0644836" />
      <text
         xml:space="preserve"
         style="font-style:normal;font-variant:normal;font-weight:normal;font-stretch:normal;font-size:4.93889px;line-height:1.25;font-family:Roboto;-inkscape-font-specification:Roboto;font-variant-ligatures:none;stroke-width:0.264583"
         x="-43.948647"
         y="112.17506"
         id="text18490-5-8-3-3-6"><tspan
           sodipodi:role="line"
           id="tspan18488-1-3-6-6-2"
           style="font-style:normal;font-variant:normal;font-weight:normal;font-stretch:normal;font-size:4.93889px;font-family:Roboto;-inkscape-font-specification:Roboto;stroke-width:0.264583"
           x="-43.948647"
           y="112.17506">4</tspan></text>
    </g>
    <g
       id="g12669"
       transform="translate(-6.7572022,-0.10567495)">
      <circle
         style="fill:#ffffff;fill-opacity:0.995733;stroke:#1a1a1a;stroke-width:0.529167;stroke-linecap:round;stroke-linejoin:round;stroke-miterlimit:4;stroke-dasharray:none;stroke-opacity:0.999962;stop-color:#000000"
         id="path34152-3-6-3-7-9"
         cx="140.69232"
         cy="250.04001"
         r="3.0644836" />
      <text
         xml:space="preserve"
         style="font-style:normal;font-variant:normal;font-weight:normal;font-stretch:normal;font-size:4.93889px;line-height:1.25;font-family:Roboto;-inkscape-font-specification:Roboto;font-variant-ligatures:none;stroke-width:0.264583"
         x="139.35269"
         y="251.79562"
         id="text18490-5-8-7-5-1"><tspan
           sodipodi:role="line"
           id="tspan18488-1-3-5-35-2"
           style="font-style:normal;font-variant:normal;font-weight:normal;font-stretch:normal;font-size:4.93889px;font-family:Roboto;-inkscape-font-specification:Roboto;stroke-width:0.264583"
           x="139.35269"
           y="251.79562">9</tspan></text>
    </g>
    <text
       xml:space="preserve"
       style="font-size:4.9389px;line-height:1.25;font-family:Dhurjati;-inkscape-font-specification:Dhurjati;font-variant-ligatures:none;stroke-width:0.264583"
       x="142.05791"
       y="252.39511"
       id="text28401-7-6-7"><tspan
         sodipodi:role="line"
         id="tspan28399-4-2-0"
         style="font-style:normal;font-variant:normal;font-weight:normal;font-stretch:normal;font-family:Roboto;-inkscape-font-specification:Roboto;stroke-width:0.264583"
         x="142.05791"
         y="252.39511">Sensors</tspan></text>
    <g
       id="g12674-9"
       transform="translate(-83.760955,-64.197209)">
      <circle
         style="fill:#ffffff;fill-opacity:0.995733;stroke:#1a1a1a;stroke-width:0.529167;stroke-linecap:round;stroke-linejoin:round;stroke-miterlimit:4;stroke-dasharray:none;stroke-opacity:0.999962;stop-color:#000000"
         id="path34152-3-6-3-7-3"
         cx="139.76071"
         cy="234.56728"
         r="3.0644836" />
      <text
         xml:space="preserve"
         style="font-style:normal;font-variant:normal;font-weight:normal;font-stretch:normal;font-size:4.93889px;line-height:1.25;font-family:Roboto;-inkscape-font-specification:Roboto;font-variant-ligatures:none;stroke-width:0.264583"
         x="138.42108"
         y="236.32289"
         id="text18490-5-8-7-5-6"><tspan
           sodipodi:role="line"
           id="tspan18488-1-3-5-35-0"
           style="font-style:normal;font-variant:normal;font-weight:normal;font-stretch:normal;font-size:4.93889px;font-family:Roboto;-inkscape-font-specification:Roboto;stroke-width:0.264583"
           x="138.42108"
           y="236.32289">8</tspan></text>
    </g>
    <g
       id="g12669-7"
       transform="translate(-105.16837,-79.669942)">
      <circle
         style="fill:#ffffff;fill-opacity:0.995733;stroke:#1a1a1a;stroke-width:0.529167;stroke-linecap:round;stroke-linejoin:round;stroke-miterlimit:4;stroke-dasharray:none;stroke-opacity:0.999962;stop-color:#000000"
         id="path34152-3-6-3-7-9-9"
         cx="140.69232"
         cy="250.04001"
         r="3.0644836" />
      <text
         xml:space="preserve"
         style="font-style:normal;font-variant:normal;font-weight:normal;font-stretch:normal;font-size:4.93889px;line-height:1.25;font-family:Roboto;-inkscape-font-specification:Roboto;font-variant-ligatures:none;stroke-width:0.264583"
         x="139.35269"
         y="251.79562"
         id="text18490-5-8-7-5-1-2"><tspan
           sodipodi:role="line"
           id="tspan18488-1-3-5-35-2-0"
           style="font-style:normal;font-variant:normal;font-weight:normal;font-stretch:normal;font-size:4.93889px;font-family:Roboto;-inkscape-font-specification:Roboto;stroke-width:0.264583"
           x="139.35269"
           y="251.79562">9</tspan></text>
    </g>
  </g>
</svg>
