<?xml version="1.0" encoding="UTF-8" standalone="no"?>
<!-- Created with Inkscape (http://www.inkscape.org/) -->

<svg
   width="2048"
   height="2048"
   viewBox="0 0 541.86665 541.86668"
   version="1.1"
   id="svg5"
   inkscape:version="1.1.2 (0a00cf5339, 2022-02-04)"
   sodipodi:docname="viper-hull-markings.svg"
   inkscape:export-filename="/home/sam/rpg/ships-of-elite/Viper/Textures/viper-hull-markings.png"
   inkscape:export-xdpi="300"
   inkscape:export-ydpi="300"
   xmlns:inkscape="http://www.inkscape.org/namespaces/inkscape"
   xmlns:sodipodi="http://sodipodi.sourceforge.net/DTD/sodipodi-0.dtd"
   xmlns="http://www.w3.org/2000/svg"
   xmlns:svg="http://www.w3.org/2000/svg">
  <sodipodi:namedview
     id="namedview7"
     pagecolor="#ffffff"
     bordercolor="#666666"
     borderopacity="1.0"
     inkscape:pageshadow="2"
     inkscape:pageopacity="0.0"
     inkscape:pagecheckerboard="0"
     inkscape:document-units="mm"
     showgrid="false"
     units="px"
     width="2048px"
     inkscape:zoom="0.29487233"
     inkscape:cx="1671.91"
     inkscape:cy="1632.9101"
     inkscape:window-width="2560"
     inkscape:window-height="1343"
     inkscape:window-x="1200"
     inkscape:window-y="240"
     inkscape:window-maximized="1"
     inkscape:current-layer="layer1" />
  <defs
     id="defs2" />
  <g
     inkscape:label="Layer 1"
     inkscape:groupmode="layer"
     id="layer1">
    <text
       xml:space="preserve"
       style="font-size:50.8px;line-height:1.25;font-family:'Liberation Sans';-inkscape-font-specification:'Liberation Sans, Bold';font-variant-ligatures:none;stroke-width:2.11666667;font-weight:bold;font-style:normal;font-stretch:normal;font-variant:normal;font-variant-caps:normal;font-variant-numeric:normal;font-variant-east-asian:normal;fill:#ffff00;stroke:#ff0000;stroke-miterlimit:4;stroke-dasharray:none"
       x="79.637787"
       y="131.46341"
       id="text1043"><tspan
         sodipodi:role="line"
         id="tspan1041"
         style="stroke-width:2.11666667;-inkscape-font-specification:'Liberation Sans, Bold';font-family:'Liberation Sans';font-weight:bold;font-style:normal;font-stretch:normal;font-variant:normal;font-variant-ligatures:none;font-variant-caps:normal;font-variant-numeric:normal;font-variant-east-asian:normal;fill:#ffff00;stroke:#ff0000;stroke-miterlimit:4;stroke-dasharray:none;font-size:50.8px"
         x="79.637787"
         y="131.46341">POLICE</tspan></text>
    <text
       xml:space="preserve"
       style="font-style:normal;font-variant:normal;font-weight:bold;font-stretch:normal;font-size:25.4px;line-height:1.25;font-family:'Liberation Sans';-inkscape-font-specification:'Liberation Sans, Bold';font-variant-ligatures:none;font-variant-caps:normal;font-variant-numeric:normal;font-variant-east-asian:normal;fill:#ffff00;stroke:#ff0000;stroke-width:1.05833;stroke-miterlimit:4;stroke-dasharray:none"
       x="78.543076"
       y="424.34"
       id="text1043-7"><tspan
         sodipodi:role="line"
         id="tspan1041-11"
         style="font-style:normal;font-variant:normal;font-weight:bold;font-stretch:normal;font-size:25.4px;font-family:'Liberation Sans';-inkscape-font-specification:'Liberation Sans, Bold';font-variant-ligatures:none;font-variant-caps:normal;font-variant-numeric:normal;font-variant-east-asian:normal;fill:#ffff00;stroke:#ff0000;stroke-width:1.05833;stroke-miterlimit:4;stroke-dasharray:none"
         x="78.543076"
         y="424.34">PLANETARY DEFENCE FORCE</tspan></text>
    <text
       xml:space="preserve"
       style="font-style:normal;font-variant:normal;font-weight:bold;font-stretch:normal;font-size:50.8px;line-height:1.25;font-family:'Liberation Sans';-inkscape-font-specification:'Liberation Sans, Bold';font-variant-ligatures:none;font-variant-caps:normal;font-variant-numeric:normal;font-variant-east-asian:normal;fill:#ff0000;stroke:#ffffff;stroke-width:2.11667;stroke-miterlimit:4;stroke-dasharray:none"
       x="48.640736"
       y="268.11984"
       id="text1043-4"><tspan
         sodipodi:role="line"
         id="tspan1041-1"
         style="font-style:normal;font-variant:normal;font-weight:bold;font-stretch:normal;font-size:50.8px;font-family:'Liberation Sans';-inkscape-font-specification:'Liberation Sans, Bold';font-variant-ligatures:none;font-variant-caps:normal;font-variant-numeric:normal;font-variant-east-asian:normal;fill:#ff0000;stroke:#ffffff;stroke-width:2.11667;stroke-miterlimit:4;stroke-dasharray:none"
         x="48.640736"
         y="268.11984">01</tspan></text>
    <text
       xml:space="preserve"
       style="font-style:normal;font-variant:normal;font-weight:bold;font-stretch:normal;font-size:50.8px;line-height:1.25;font-family:'Liberation Sans';-inkscape-font-specification:'Liberation Sans, Bold';font-variant-ligatures:none;font-variant-caps:normal;font-variant-numeric:normal;font-variant-east-asian:normal;fill:#ff0000;stroke:#ffffff;stroke-width:2.11667;stroke-miterlimit:4;stroke-dasharray:none"
       x="173.72696"
       y="270.49582"
       id="text1043-4-1"><tspan
         sodipodi:role="line"
         id="tspan1041-1-7"
         style="font-style:normal;font-variant:normal;font-weight:bold;font-stretch:normal;font-size:50.8px;font-family:'Liberation Sans';-inkscape-font-specification:'Liberation Sans, Bold';font-variant-ligatures:none;font-variant-caps:normal;font-variant-numeric:normal;font-variant-east-asian:normal;fill:#ff0000;stroke:#ffffff;stroke-width:2.11667;stroke-miterlimit:4;stroke-dasharray:none"
         x="173.72696"
         y="270.49582">02</tspan></text>
    <text
       xml:space="preserve"
       style="font-style:normal;font-variant:normal;font-weight:bold;font-stretch:normal;font-size:50.8px;line-height:1.25;font-family:'Liberation Sans';-inkscape-font-specification:'Liberation Sans, Bold';font-variant-ligatures:none;font-variant-caps:normal;font-variant-numeric:normal;font-variant-east-asian:normal;fill:#ff0000;stroke:#ffffff;stroke-width:2.11667;stroke-miterlimit:4;stroke-dasharray:none"
       x="299.04071"
       y="271.16492"
       id="text1043-4-0"><tspan
         sodipodi:role="line"
         id="tspan1041-1-4"
         style="font-style:normal;font-variant:normal;font-weight:bold;font-stretch:normal;font-size:50.8px;font-family:'Liberation Sans';-inkscape-font-specification:'Liberation Sans, Bold';font-variant-ligatures:none;font-variant-caps:normal;font-variant-numeric:normal;font-variant-east-asian:normal;fill:#ff0000;stroke:#ffffff;stroke-width:2.11667;stroke-miterlimit:4;stroke-dasharray:none"
         x="299.04071"
         y="271.16492">03</tspan></text>
    <text
       xml:space="preserve"
       style="font-style:normal;font-variant:normal;font-weight:bold;font-stretch:normal;font-size:50.8px;line-height:1.25;font-family:'Liberation Sans';-inkscape-font-specification:'Liberation Sans, Bold';font-variant-ligatures:none;font-variant-caps:normal;font-variant-numeric:normal;font-variant-east-asian:normal;fill:#ff0000;stroke:#ffffff;stroke-width:2.11667;stroke-miterlimit:4;stroke-dasharray:none"
       x="422.32498"
       y="272.54965"
       id="text1043-4-08"><tspan
         sodipodi:role="line"
         id="tspan1041-1-5"
         style="font-style:normal;font-variant:normal;font-weight:bold;font-stretch:normal;font-size:50.8px;font-family:'Liberation Sans';-inkscape-font-specification:'Liberation Sans, Bold';font-variant-ligatures:none;font-variant-caps:normal;font-variant-numeric:normal;font-variant-east-asian:normal;fill:#ff0000;stroke:#ffffff;stroke-width:2.11667;stroke-miterlimit:4;stroke-dasharray:none"
         x="422.32498"
         y="272.54965">04</tspan></text>
  </g>
</svg>
