<?xml version="1.0" encoding="UTF-8" standalone="no"?>
<!-- Created with Inkscape (http://www.inkscape.org/) -->

<svg
   width="210mm"
   height="297mm"
   viewBox="0 0 210 297"
   version="1.1"
   id="svg5"
   inkscape:version="1.1.2 (0a00cf5339, 2022-02-04)"
   sodipodi:docname="Cobra_III-Deck-Plans.svg"
   inkscape:export-filename="/home/sam/rpg/ships-of-elite/Cobra_III/Deck Plans/Cobra_III-Deck-Plans.png"
   inkscape:export-xdpi="300"
   inkscape:export-ydpi="300"
   xmlns:inkscape="http://www.inkscape.org/namespaces/inkscape"
   xmlns:sodipodi="http://sodipodi.sourceforge.net/DTD/sodipodi-0.dtd"
   xmlns:xlink="http://www.w3.org/1999/xlink"
   xmlns="http://www.w3.org/2000/svg"
   xmlns:svg="http://www.w3.org/2000/svg">
  <sodipodi:namedview
     id="namedview7"
     pagecolor="#ffffff"
     bordercolor="#666666"
     borderopacity="1.0"
     inkscape:pageshadow="2"
     inkscape:pageopacity="0.0"
     inkscape:pagecheckerboard="0"
     inkscape:document-units="mm"
     showgrid="true"
     inkscape:zoom="1.6680498"
     inkscape:cx="429.54353"
     inkscape:cy="874.37437"
     inkscape:window-width="2560"
     inkscape:window-height="1343"
     inkscape:window-x="1200"
     inkscape:window-y="240"
     inkscape:window-maximized="1"
     inkscape:current-layer="layer1">
    <inkscape:grid
       type="xygrid"
       id="grid60"
       units="px"
       spacingx="16.933333"
       spacingy="16.933333" />
  </sodipodi:namedview>
  <defs
     id="defs2" />
  <g
     inkscape:label="Layer 1"
     inkscape:groupmode="layer"
     id="layer1">
    <g
       id="g21187-4"
       transform="translate(82.641067,165.49502)">
      <circle
         style="fill:#ffffff;fill-opacity:0.995733;stroke:#1a1a1a;stroke-width:0.529167;stroke-linecap:round;stroke-linejoin:round;stroke-miterlimit:4;stroke-dasharray:none;stroke-opacity:0.999962;stop-color:#000000"
         id="path34152-12"
         cx="-59.542351"
         cy="76.552757"
         r="3.0644836" />
      <text
         xml:space="preserve"
         style="font-style:normal;font-variant:normal;font-weight:normal;font-stretch:normal;font-size:4.93889px;line-height:1.25;font-family:Roboto;-inkscape-font-specification:Roboto;font-variant-ligatures:none;stroke-width:0.264583"
         x="-60.62635"
         y="78.316818"
         id="text18490-8"><tspan
           sodipodi:role="line"
           id="tspan18488-8"
           style="font-style:normal;font-variant:normal;font-weight:normal;font-stretch:normal;font-size:4.93889px;font-family:Roboto;-inkscape-font-specification:Roboto;stroke-width:0.264583"
           x="-60.62635"
           y="78.316818">1</tspan></text>
    </g>
    <g
       id="g21192-9"
       transform="translate(65.707736,160.16087)">
      <circle
         style="fill:#ffffff;fill-opacity:0.995733;stroke:#1a1a1a;stroke-width:0.529167;stroke-linecap:round;stroke-linejoin:round;stroke-miterlimit:4;stroke-dasharray:none;stroke-opacity:0.999962;stop-color:#000000"
         id="path34152-2-2"
         cx="-42.60902"
         cy="93.486092"
         r="3.0644836" />
      <text
         xml:space="preserve"
         style="font-style:normal;font-variant:normal;font-weight:normal;font-stretch:normal;font-size:4.93889px;line-height:1.25;font-family:Roboto;-inkscape-font-specification:Roboto;font-variant-ligatures:none;stroke-width:0.264583"
         x="-44.017376"
         y="95.265831"
         id="text18490-9-8"><tspan
           sodipodi:role="line"
           id="tspan18488-4-8"
           style="font-style:normal;font-variant:normal;font-weight:normal;font-stretch:normal;font-size:4.93889px;font-family:Roboto;-inkscape-font-specification:Roboto;stroke-width:0.264583"
           x="-44.017376"
           y="95.265831">2</tspan></text>
    </g>
    <g
       id="g21197-8"
       transform="translate(65.707736,154.82669)">
      <circle
         style="fill:#ffffff;fill-opacity:0.995733;stroke:#1a1a1a;stroke-width:0.529167;stroke-linecap:round;stroke-linejoin:round;stroke-miterlimit:4;stroke-dasharray:none;stroke-opacity:0.999962;stop-color:#000000"
         id="path34152-3-6"
         cx="-42.60902"
         cy="110.41943"
         r="3.0644836" />
      <text
         xml:space="preserve"
         style="font-style:normal;font-variant:normal;font-weight:normal;font-stretch:normal;font-size:4.93889px;line-height:1.25;font-family:Roboto;-inkscape-font-specification:Roboto;font-variant-ligatures:none;stroke-width:0.264583"
         x="-43.948647"
         y="112.17506"
         id="text18490-5-8"><tspan
           sodipodi:role="line"
           id="tspan18488-1-3"
           style="font-style:normal;font-variant:normal;font-weight:normal;font-stretch:normal;font-size:4.93889px;font-family:Roboto;-inkscape-font-specification:Roboto;stroke-width:0.264583"
           x="-43.948647"
           y="112.17506">3</tspan></text>
    </g>
    <text
       xml:space="preserve"
       style="font-size:4.9389px;line-height:1.25;font-family:Dhurjati;-inkscape-font-specification:Dhurjati;font-variant-ligatures:none;stroke-width:0.264583"
       x="30.904371"
       y="244.39214"
       id="text28401"><tspan
         sodipodi:role="line"
         id="tspan28399"
         style="font-style:normal;font-variant:normal;font-weight:normal;font-stretch:normal;font-family:Roboto;-inkscape-font-specification:Roboto;stroke-width:0.264583"
         x="30.904371"
         y="244.39214">Fuel</tspan></text>
    <text
       xml:space="preserve"
       style="font-size:4.9389px;line-height:1.25;font-family:Dhurjati;-inkscape-font-specification:Dhurjati;font-variant-ligatures:none;stroke-width:0.264583"
       x="31.02495"
       y="267.67276"
       id="text31639"><tspan
         sodipodi:role="line"
         id="tspan31637"
         style="font-style:normal;font-variant:normal;font-weight:normal;font-stretch:normal;font-family:Roboto;-inkscape-font-specification:Roboto;stroke-width:0.264583"
         x="31.02495"
         y="267.67276">Cargo Hatch/Ramp</tspan></text>
    <text
       xml:space="preserve"
       style="font-size:4.9389px;line-height:1.25;font-family:Dhurjati;-inkscape-font-specification:Dhurjati;font-variant-ligatures:none;stroke-width:0.264583"
       x="31.02495"
       y="255.67766"
       id="text34523"><tspan
         sodipodi:role="line"
         id="tspan34521"
         style="font-style:normal;font-variant:normal;font-weight:normal;font-stretch:normal;font-family:Roboto;-inkscape-font-specification:Roboto;stroke-width:0.264583"
         x="31.02495"
         y="255.67766">Cargo Holds</tspan></text>
    <g
       id="g21197-8-0"
       transform="translate(123.61428,131.62834)">
      <circle
         style="fill:#ffffff;fill-opacity:0.995733;stroke:#1a1a1a;stroke-width:0.529167;stroke-linecap:round;stroke-linejoin:round;stroke-miterlimit:4;stroke-dasharray:none;stroke-opacity:0.999962;stop-color:#000000"
         id="path34152-3-6-9"
         cx="-42.60902"
         cy="110.41943"
         r="3.0644836" />
      <text
         xml:space="preserve"
         style="font-style:normal;font-variant:normal;font-weight:normal;font-stretch:normal;font-size:4.93889px;line-height:1.25;font-family:Roboto;-inkscape-font-specification:Roboto;font-variant-ligatures:none;stroke-width:0.264583"
         x="-43.948647"
         y="112.17506"
         id="text18490-5-8-3"><tspan
           sodipodi:role="line"
           id="tspan18488-1-3-6"
           style="font-style:normal;font-variant:normal;font-weight:normal;font-stretch:normal;font-size:4.93889px;font-family:Roboto;-inkscape-font-specification:Roboto;stroke-width:0.264583"
           x="-43.948647"
           y="112.17506">4</tspan></text>
    </g>
    <g
       id="g21197-8-06"
       transform="translate(123.61428,143.51253)">
      <circle
         style="fill:#ffffff;fill-opacity:0.995733;stroke:#1a1a1a;stroke-width:0.529167;stroke-linecap:round;stroke-linejoin:round;stroke-miterlimit:4;stroke-dasharray:none;stroke-opacity:0.999962;stop-color:#000000"
         id="path34152-3-6-2"
         cx="-42.60902"
         cy="110.41943"
         r="3.0644836" />
      <text
         xml:space="preserve"
         style="font-style:normal;font-variant:normal;font-weight:normal;font-stretch:normal;font-size:4.93889px;line-height:1.25;font-family:Roboto;-inkscape-font-specification:Roboto;font-variant-ligatures:none;stroke-width:0.264583"
         x="-43.948647"
         y="112.17506"
         id="text18490-5-8-6"><tspan
           sodipodi:role="line"
           id="tspan18488-1-3-1"
           style="font-style:normal;font-variant:normal;font-weight:normal;font-stretch:normal;font-size:4.93889px;font-family:Roboto;-inkscape-font-specification:Roboto;stroke-width:0.264583"
           x="-43.948647"
           y="112.17506">5</tspan></text>
    </g>
    <g
       id="g21197-8-8"
       transform="translate(123.61428,155.1117)">
      <circle
         style="fill:#ffffff;fill-opacity:0.995733;stroke:#1a1a1a;stroke-width:0.529167;stroke-linecap:round;stroke-linejoin:round;stroke-miterlimit:4;stroke-dasharray:none;stroke-opacity:0.999962;stop-color:#000000"
         id="path34152-3-6-7"
         cx="-42.60902"
         cy="110.41943"
         r="3.0644836" />
      <text
         xml:space="preserve"
         style="font-style:normal;font-variant:normal;font-weight:normal;font-stretch:normal;font-size:4.93889px;line-height:1.25;font-family:Roboto;-inkscape-font-specification:Roboto;font-variant-ligatures:none;stroke-width:0.264583"
         x="-43.948647"
         y="112.17506"
         id="text18490-5-8-9"><tspan
           sodipodi:role="line"
           id="tspan18488-1-3-2"
           style="font-style:normal;font-variant:normal;font-weight:normal;font-stretch:normal;font-size:4.93889px;font-family:Roboto;-inkscape-font-specification:Roboto;stroke-width:0.264583"
           x="-43.948647"
           y="112.17506">6</tspan></text>
    </g>
    <text
       xml:space="preserve"
       style="font-size:4.9389px;line-height:1.25;font-family:Dhurjati;-inkscape-font-specification:Dhurjati;font-variant-ligatures:none;stroke-width:0.264583"
       x="88.913422"
       y="244.03911"
       id="text28401-4"><tspan
         sodipodi:role="line"
         id="tspan28399-7"
         style="font-style:normal;font-variant:normal;font-weight:normal;font-stretch:normal;font-family:Roboto;-inkscape-font-specification:Roboto;stroke-width:0.264583"
         x="88.913422"
         y="244.03911">Airlocks</tspan></text>
    <text
       xml:space="preserve"
       style="font-size:4.9389px;line-height:1.25;font-family:Dhurjati;-inkscape-font-specification:Dhurjati;font-variant-ligatures:none;stroke-width:0.264583"
       x="88.573387"
       y="255.97932"
       id="text28401-6"><tspan
         sodipodi:role="line"
         id="tspan28399-5"
         style="font-style:normal;font-variant:normal;font-weight:normal;font-stretch:normal;font-family:Roboto;-inkscape-font-specification:Roboto;stroke-width:0.264583"
         x="88.573387"
         y="255.97932">Bridge</tspan></text>
    <text
       xml:space="preserve"
       style="font-size:4.9389px;line-height:1.25;font-family:Dhurjati;-inkscape-font-specification:Dhurjati;font-variant-ligatures:none;stroke-width:0.264583"
       x="88.573387"
       y="267.50238"
       id="text28401-69"><tspan
         sodipodi:role="line"
         id="tspan28399-3"
         style="font-style:normal;font-variant:normal;font-weight:normal;font-stretch:normal;font-family:Roboto;-inkscape-font-specification:Roboto;stroke-width:0.264583"
         x="88.573387"
         y="267.50238">Living Quarters</tspan></text>
    <g
       id="g21197-8-02"
       transform="translate(176.685,131.62834)">
      <circle
         style="fill:#ffffff;fill-opacity:0.995733;stroke:#1a1a1a;stroke-width:0.529167;stroke-linecap:round;stroke-linejoin:round;stroke-miterlimit:4;stroke-dasharray:none;stroke-opacity:0.999962;stop-color:#000000"
         id="path34152-3-6-3"
         cx="-42.60902"
         cy="110.41943"
         r="3.0644836" />
      <text
         xml:space="preserve"
         style="font-style:normal;font-variant:normal;font-weight:normal;font-stretch:normal;font-size:4.93889px;line-height:1.25;font-family:Roboto;-inkscape-font-specification:Roboto;font-variant-ligatures:none;stroke-width:0.264583"
         x="-43.948647"
         y="112.17506"
         id="text18490-5-8-7"><tspan
           sodipodi:role="line"
           id="tspan18488-1-3-5"
           style="font-style:normal;font-variant:normal;font-weight:normal;font-stretch:normal;font-size:4.93889px;font-family:Roboto;-inkscape-font-specification:Roboto;stroke-width:0.264583"
           x="-43.948647"
           y="112.17506">7</tspan></text>
    </g>
    <image
       width="303.71341"
       height="116.81284"
       preserveAspectRatio="none"
       xlink:href="cobra_iii-deck-1-256px.png"
       id="image196"
       x="-100.51341"
       y="-16.933332"
       style="stroke-width:4.34884" />
    <image
       width="303.71341"
       height="116.81284"
       preserveAspectRatio="none"
       xlink:href="cobra_iii-deck-3-256px.png"
       id="image220"
       x="-15.846748"
       y="35.587154"
       style="stroke-width:4.34884" />
    <image
       width="303.71341"
       height="116.81284"
       preserveAspectRatio="none"
       xlink:href="cobra_iii-deck-2-256px.png"
       id="image208"
       x="-50.799999"
       y="137.18715"
       style="stroke-width:4.34884" />
    <text
       xml:space="preserve"
       style="font-size:4.9389px;line-height:1.25;font-family:Dhurjati;-inkscape-font-specification:Dhurjati;font-variant-ligatures:none;stroke-width:0.264583"
       x="141.98413"
       y="243.47722"
       id="text28401-7"><tspan
         sodipodi:role="line"
         id="tspan28399-4"
         style="font-style:normal;font-variant:normal;font-weight:normal;font-stretch:normal;font-family:Roboto;-inkscape-font-specification:Roboto;stroke-width:0.264583"
         x="141.98413"
         y="243.47722">Engineering</tspan></text>
    <g
       id="g12674"
       transform="translate(-5.6847348,19.364689)">
      <circle
         style="fill:#ffffff;fill-opacity:0.995733;stroke:#1a1a1a;stroke-width:0.529167;stroke-linecap:round;stroke-linejoin:round;stroke-miterlimit:4;stroke-dasharray:none;stroke-opacity:0.999962;stop-color:#000000"
         id="path34152-3-6-3-7"
         cx="139.76071"
         cy="234.56728"
         r="3.0644836" />
      <text
         xml:space="preserve"
         style="font-style:normal;font-variant:normal;font-weight:normal;font-stretch:normal;font-size:4.93889px;line-height:1.25;font-family:Roboto;-inkscape-font-specification:Roboto;font-variant-ligatures:none;stroke-width:0.264583"
         x="138.42108"
         y="236.32289"
         id="text18490-5-8-7-5"><tspan
           sodipodi:role="line"
           id="tspan18488-1-3-5-35"
           style="font-style:normal;font-variant:normal;font-weight:normal;font-stretch:normal;font-size:4.93889px;font-family:Roboto;-inkscape-font-specification:Roboto;stroke-width:0.264583"
           x="138.42108"
           y="236.32289">8</tspan></text>
    </g>
    <text
       xml:space="preserve"
       style="font-size:4.9389px;line-height:1.25;font-family:Dhurjati;-inkscape-font-specification:Dhurjati;font-variant-ligatures:none;stroke-width:0.264583"
       x="141.98413"
       y="256.46887"
       id="text28401-7-6"><tspan
         sodipodi:role="line"
         id="tspan28399-4-2"
         style="font-style:normal;font-variant:normal;font-weight:normal;font-stretch:normal;font-family:Roboto;-inkscape-font-specification:Roboto;stroke-width:0.264583"
         x="141.98413"
         y="256.46887">Fuel Processors</tspan></text>
    <g
       id="g21187-4-3"
       transform="translate(109.63738,-28.377591)">
      <circle
         style="fill:#ffffff;fill-opacity:0.995733;stroke:#1a1a1a;stroke-width:0.529167;stroke-linecap:round;stroke-linejoin:round;stroke-miterlimit:4;stroke-dasharray:none;stroke-opacity:0.999962;stop-color:#000000"
         id="path34152-12-6"
         cx="-59.542351"
         cy="76.552757"
         r="3.0644836" />
      <text
         xml:space="preserve"
         style="font-style:normal;font-variant:normal;font-weight:normal;font-stretch:normal;font-size:4.93889px;line-height:1.25;font-family:Roboto;-inkscape-font-specification:Roboto;font-variant-ligatures:none;stroke-width:0.264583"
         x="-60.62635"
         y="78.316818"
         id="text18490-8-7"><tspan
           sodipodi:role="line"
           id="tspan18488-8-5"
           style="font-style:normal;font-variant:normal;font-weight:normal;font-stretch:normal;font-size:4.93889px;font-family:Roboto;-inkscape-font-specification:Roboto;stroke-width:0.264583"
           x="-60.62635"
           y="78.316818">1</tspan></text>
    </g>
    <g
       id="g21187-4-3-3"
       transform="translate(159.93281,130.73124)">
      <circle
         style="fill:#ffffff;fill-opacity:0.995733;stroke:#1a1a1a;stroke-width:0.529167;stroke-linecap:round;stroke-linejoin:round;stroke-miterlimit:4;stroke-dasharray:none;stroke-opacity:0.999962;stop-color:#000000"
         id="path34152-12-6-6"
         cx="-59.542351"
         cy="76.552757"
         r="3.0644836" />
      <text
         xml:space="preserve"
         style="font-style:normal;font-variant:normal;font-weight:normal;font-stretch:normal;font-size:4.93889px;line-height:1.25;font-family:Roboto;-inkscape-font-specification:Roboto;font-variant-ligatures:none;stroke-width:0.264583"
         x="-60.62635"
         y="78.316818"
         id="text18490-8-7-7"><tspan
           sodipodi:role="line"
           id="tspan18488-8-5-5"
           style="font-style:normal;font-variant:normal;font-weight:normal;font-stretch:normal;font-size:4.93889px;font-family:Roboto;-inkscape-font-specification:Roboto;stroke-width:0.264583"
           x="-60.62635"
           y="78.316818">1</tspan></text>
    </g>
    <g
       id="g21192-9-3"
       transform="translate(144.58009,82.342406)">
      <circle
         style="fill:#ffffff;fill-opacity:0.995733;stroke:#1a1a1a;stroke-width:0.529167;stroke-linecap:round;stroke-linejoin:round;stroke-miterlimit:4;stroke-dasharray:none;stroke-opacity:0.999962;stop-color:#000000"
         id="path34152-2-2-5"
         cx="-42.60902"
         cy="93.486092"
         r="3.0644836" />
      <text
         xml:space="preserve"
         style="font-style:normal;font-variant:normal;font-weight:normal;font-stretch:normal;font-size:4.93889px;line-height:1.25;font-family:Roboto;-inkscape-font-specification:Roboto;font-variant-ligatures:none;stroke-width:0.264583"
         x="-44.017376"
         y="95.265831"
         id="text18490-9-8-6"><tspan
           sodipodi:role="line"
           id="tspan18488-4-8-2"
           style="font-style:normal;font-variant:normal;font-weight:normal;font-stretch:normal;font-size:4.93889px;font-family:Roboto;-inkscape-font-specification:Roboto;stroke-width:0.264583"
           x="-44.017376"
           y="95.265831">2</tspan></text>
    </g>
    <g
       id="g21197-8-9"
       transform="translate(144.1095,43.037716)">
      <circle
         style="fill:#ffffff;fill-opacity:0.995733;stroke:#1a1a1a;stroke-width:0.529167;stroke-linecap:round;stroke-linejoin:round;stroke-miterlimit:4;stroke-dasharray:none;stroke-opacity:0.999962;stop-color:#000000"
         id="path34152-3-6-1"
         cx="-42.60902"
         cy="110.41943"
         r="3.0644836" />
      <text
         xml:space="preserve"
         style="font-style:normal;font-variant:normal;font-weight:normal;font-stretch:normal;font-size:4.93889px;line-height:1.25;font-family:Roboto;-inkscape-font-specification:Roboto;font-variant-ligatures:none;stroke-width:0.264583"
         x="-43.948647"
         y="112.17506"
         id="text18490-5-8-2"><tspan
           sodipodi:role="line"
           id="tspan18488-1-3-7"
           style="font-style:normal;font-variant:normal;font-weight:normal;font-stretch:normal;font-size:4.93889px;font-family:Roboto;-inkscape-font-specification:Roboto;stroke-width:0.264583"
           x="-43.948647"
           y="112.17506">3</tspan></text>
    </g>
    <g
       id="g21197-8-0-0"
       transform="translate(213.41934,86.047616)">
      <circle
         style="fill:#ffffff;fill-opacity:0.995733;stroke:#1a1a1a;stroke-width:0.529167;stroke-linecap:round;stroke-linejoin:round;stroke-miterlimit:4;stroke-dasharray:none;stroke-opacity:0.999962;stop-color:#000000"
         id="path34152-3-6-9-9"
         cx="-42.60902"
         cy="110.41943"
         r="3.0644836" />
      <text
         xml:space="preserve"
         style="font-style:normal;font-variant:normal;font-weight:normal;font-stretch:normal;font-size:4.93889px;line-height:1.25;font-family:Roboto;-inkscape-font-specification:Roboto;font-variant-ligatures:none;stroke-width:0.264583"
         x="-43.948647"
         y="112.17506"
         id="text18490-5-8-3-3"><tspan
           sodipodi:role="line"
           id="tspan18488-1-3-6-6"
           style="font-style:normal;font-variant:normal;font-weight:normal;font-stretch:normal;font-size:4.93889px;font-family:Roboto;-inkscape-font-specification:Roboto;stroke-width:0.264583"
           x="-43.948647"
           y="112.17506">4</tspan></text>
    </g>
    <g
       id="g21197-8-06-0"
       transform="translate(180.28542,-30.132987)">
      <circle
         style="fill:#ffffff;fill-opacity:0.995733;stroke:#1a1a1a;stroke-width:0.529167;stroke-linecap:round;stroke-linejoin:round;stroke-miterlimit:4;stroke-dasharray:none;stroke-opacity:0.999962;stop-color:#000000"
         id="path34152-3-6-2-6"
         cx="-42.60902"
         cy="110.41943"
         r="3.0644836" />
      <text
         xml:space="preserve"
         style="font-style:normal;font-variant:normal;font-weight:normal;font-stretch:normal;font-size:4.93889px;line-height:1.25;font-family:Roboto;-inkscape-font-specification:Roboto;font-variant-ligatures:none;stroke-width:0.264583"
         x="-43.948647"
         y="112.17506"
         id="text18490-5-8-6-2"><tspan
           sodipodi:role="line"
           id="tspan18488-1-3-1-6"
           style="font-style:normal;font-variant:normal;font-weight:normal;font-stretch:normal;font-size:4.93889px;font-family:Roboto;-inkscape-font-specification:Roboto;stroke-width:0.264583"
           x="-43.948647"
           y="112.17506">5</tspan></text>
    </g>
    <g
       id="g21197-8-8-1"
       transform="translate(164.93213,-15.619959)">
      <circle
         style="fill:#ffffff;fill-opacity:0.995733;stroke:#1a1a1a;stroke-width:0.529167;stroke-linecap:round;stroke-linejoin:round;stroke-miterlimit:4;stroke-dasharray:none;stroke-opacity:0.999962;stop-color:#000000"
         id="path34152-3-6-7-8"
         cx="-42.60902"
         cy="110.41943"
         r="3.0644836" />
      <text
         xml:space="preserve"
         style="font-style:normal;font-variant:normal;font-weight:normal;font-stretch:normal;font-size:4.93889px;line-height:1.25;font-family:Roboto;-inkscape-font-specification:Roboto;font-variant-ligatures:none;stroke-width:0.264583"
         x="-43.948647"
         y="112.17506"
         id="text18490-5-8-9-7"><tspan
           sodipodi:role="line"
           id="tspan18488-1-3-2-9"
           style="font-style:normal;font-variant:normal;font-weight:normal;font-stretch:normal;font-size:4.93889px;font-family:Roboto;-inkscape-font-specification:Roboto;stroke-width:0.264583"
           x="-43.948647"
           y="112.17506">6</tspan></text>
    </g>
    <g
       id="g21197-8-8-1-2"
       transform="translate(71.713943,102.35067)">
      <circle
         style="fill:#ffffff;fill-opacity:0.995733;stroke:#1a1a1a;stroke-width:0.529167;stroke-linecap:round;stroke-linejoin:round;stroke-miterlimit:4;stroke-dasharray:none;stroke-opacity:0.999962;stop-color:#000000"
         id="path34152-3-6-7-8-7"
         cx="-42.60902"
         cy="110.41943"
         r="3.0644836" />
      <text
         xml:space="preserve"
         style="font-style:normal;font-variant:normal;font-weight:normal;font-stretch:normal;font-size:4.93889px;line-height:1.25;font-family:Roboto;-inkscape-font-specification:Roboto;font-variant-ligatures:none;stroke-width:0.264583"
         x="-43.948647"
         y="112.17506"
         id="text18490-5-8-9-7-0"><tspan
           sodipodi:role="line"
           id="tspan18488-1-3-2-9-9"
           style="font-style:normal;font-variant:normal;font-weight:normal;font-stretch:normal;font-size:4.93889px;font-family:Roboto;-inkscape-font-specification:Roboto;stroke-width:0.264583"
           x="-43.948647"
           y="112.17506">6</tspan></text>
    </g>
    <g
       id="g21197-8-02-2"
       transform="translate(143.26691,113.89351)">
      <circle
         style="fill:#ffffff;fill-opacity:0.995733;stroke:#1a1a1a;stroke-width:0.529167;stroke-linecap:round;stroke-linejoin:round;stroke-miterlimit:4;stroke-dasharray:none;stroke-opacity:0.999962;stop-color:#000000"
         id="path34152-3-6-3-0"
         cx="-42.60902"
         cy="110.41943"
         r="3.0644836" />
      <text
         xml:space="preserve"
         style="font-style:normal;font-variant:normal;font-weight:normal;font-stretch:normal;font-size:4.93889px;line-height:1.25;font-family:Roboto;-inkscape-font-specification:Roboto;font-variant-ligatures:none;stroke-width:0.264583"
         x="-43.948647"
         y="112.17506"
         id="text18490-5-8-7-2"><tspan
           sodipodi:role="line"
           id="tspan18488-1-3-5-3"
           style="font-style:normal;font-variant:normal;font-weight:normal;font-stretch:normal;font-size:4.93889px;font-family:Roboto;-inkscape-font-specification:Roboto;stroke-width:0.264583"
           x="-43.948647"
           y="112.17506">7</tspan></text>
    </g>
    <text
       xml:space="preserve"
       style="font-size:4.9389px;line-height:1.25;font-family:Roboto;-inkscape-font-specification:Roboto;font-variant-ligatures:none;stroke-width:0.264583"
       x="32.746258"
       y="15.868006"
       id="text1293"><tspan
         sodipodi:role="line"
         id="tspan1291"
         style="stroke-width:0.264583"
         x="32.746258"
         y="15.868006">Deck 1 (Lower)</tspan></text>
    <text
       xml:space="preserve"
       style="font-size:4.9389px;line-height:1.25;font-family:Roboto;-inkscape-font-specification:Roboto;font-variant-ligatures:none;stroke-width:0.264583"
       x="93.156219"
       y="139.37959"
       id="text2683"><tspan
         sodipodi:role="line"
         id="tspan2681"
         style="stroke-width:0.264583"
         x="93.156219"
         y="139.37959">Deck 2</tspan></text>
    <text
       xml:space="preserve"
       style="font-size:4.9389px;line-height:1.25;font-family:Roboto;-inkscape-font-specification:Roboto;font-variant-ligatures:none;stroke-width:0.264583"
       x="120.35901"
       y="57.550743"
       id="text3875"><tspan
         sodipodi:role="line"
         id="tspan3873"
         style="stroke-width:0.264583"
         x="120.35901"
         y="57.550743">Deck 3 (Upper)</tspan></text>
    <g
       id="g21197-8-0-0-3"
       transform="translate(73.716483,86.15109)">
      <circle
         style="fill:#ffffff;fill-opacity:0.995733;stroke:#1a1a1a;stroke-width:0.529167;stroke-linecap:round;stroke-linejoin:round;stroke-miterlimit:4;stroke-dasharray:none;stroke-opacity:0.999962;stop-color:#000000"
         id="path34152-3-6-9-9-5"
         cx="-42.60902"
         cy="110.41943"
         r="3.0644836" />
      <text
         xml:space="preserve"
         style="font-style:normal;font-variant:normal;font-weight:normal;font-stretch:normal;font-size:4.93889px;line-height:1.25;font-family:Roboto;-inkscape-font-specification:Roboto;font-variant-ligatures:none;stroke-width:0.264583"
         x="-43.948647"
         y="112.17506"
         id="text18490-5-8-3-3-6"><tspan
           sodipodi:role="line"
           id="tspan18488-1-3-6-6-2"
           style="font-style:normal;font-variant:normal;font-weight:normal;font-stretch:normal;font-size:4.93889px;font-family:Roboto;-inkscape-font-specification:Roboto;stroke-width:0.264583"
           x="-43.948647"
           y="112.17506">4</tspan></text>
    </g>
    <g
       id="g12669"
       transform="translate(-6.6163449,15.491127)">
      <circle
         style="fill:#ffffff;fill-opacity:0.995733;stroke:#1a1a1a;stroke-width:0.529167;stroke-linecap:round;stroke-linejoin:round;stroke-miterlimit:4;stroke-dasharray:none;stroke-opacity:0.999962;stop-color:#000000"
         id="path34152-3-6-3-7-9"
         cx="140.69232"
         cy="250.04001"
         r="3.0644836" />
      <text
         xml:space="preserve"
         style="font-style:normal;font-variant:normal;font-weight:normal;font-stretch:normal;font-size:4.93889px;line-height:1.25;font-family:Roboto;-inkscape-font-specification:Roboto;font-variant-ligatures:none;stroke-width:0.264583"
         x="139.35269"
         y="251.79562"
         id="text18490-5-8-7-5-1"><tspan
           sodipodi:role="line"
           id="tspan18488-1-3-5-35-2"
           style="font-style:normal;font-variant:normal;font-weight:normal;font-stretch:normal;font-size:4.93889px;font-family:Roboto;-inkscape-font-specification:Roboto;stroke-width:0.264583"
           x="139.35269"
           y="251.79562">9</tspan></text>
    </g>
    <text
       xml:space="preserve"
       style="font-size:4.9389px;line-height:1.25;font-family:Dhurjati;-inkscape-font-specification:Dhurjati;font-variant-ligatures:none;stroke-width:0.264583"
       x="142.19876"
       y="267.99191"
       id="text28401-7-6-7"><tspan
         sodipodi:role="line"
         id="tspan28399-4-2-0"
         style="font-style:normal;font-variant:normal;font-weight:normal;font-stretch:normal;font-family:Roboto;-inkscape-font-specification:Roboto;stroke-width:0.264583"
         x="142.19876"
         y="267.99191">Sensors</tspan></text>
    <g
       id="g12669-3"
       transform="translate(-6.4577261,26.857074)">
      <circle
         style="fill:#ffffff;fill-opacity:0.995733;stroke:#1a1a1a;stroke-width:0.529167;stroke-linecap:round;stroke-linejoin:round;stroke-miterlimit:4;stroke-dasharray:none;stroke-opacity:0.999962;stop-color:#000000"
         id="path34152-3-6-3-7-9-6"
         cx="140.69232"
         cy="250.04001"
         r="3.0644836" />
      <text
         xml:space="preserve"
         style="font-style:normal;font-variant:normal;font-weight:normal;font-stretch:normal;font-size:3.52778px;line-height:1.25;font-family:Roboto;-inkscape-font-specification:Roboto;font-variant-ligatures:none;stroke-width:0.264583"
         x="138.67731"
         y="251.36682"
         id="text18490-5-8-7-5-1-7"><tspan
           sodipodi:role="line"
           id="tspan18488-1-3-5-35-2-5"
           style="font-style:normal;font-variant:normal;font-weight:normal;font-stretch:normal;font-size:3.52778px;font-family:Roboto;-inkscape-font-specification:Roboto;stroke-width:0.264583"
           x="138.67731"
           y="251.36682">10</tspan></text>
    </g>
    <text
       xml:space="preserve"
       style="font-size:4.9389px;line-height:1.25;font-family:Dhurjati;-inkscape-font-specification:Dhurjati;font-variant-ligatures:none;stroke-width:0.264583"
       x="142.35738"
       y="279.35788"
       id="text28401-7-6-7-3"><tspan
         sodipodi:role="line"
         id="tspan28399-4-2-0-5"
         style="font-style:normal;font-variant:normal;font-weight:normal;font-stretch:normal;font-family:Roboto;-inkscape-font-specification:Roboto;stroke-width:0.264583"
         x="142.35738"
         y="279.35788">Cargo scoops</tspan></text>
    <g
       id="g12674-9"
       transform="translate(-71.359578,-27.876471)">
      <circle
         style="fill:#ffffff;fill-opacity:0.995733;stroke:#1a1a1a;stroke-width:0.529167;stroke-linecap:round;stroke-linejoin:round;stroke-miterlimit:4;stroke-dasharray:none;stroke-opacity:0.999962;stop-color:#000000"
         id="path34152-3-6-3-7-3"
         cx="139.76071"
         cy="234.56728"
         r="3.0644836" />
      <text
         xml:space="preserve"
         style="font-style:normal;font-variant:normal;font-weight:normal;font-stretch:normal;font-size:4.93889px;line-height:1.25;font-family:Roboto;-inkscape-font-specification:Roboto;font-variant-ligatures:none;stroke-width:0.264583"
         x="138.42108"
         y="236.32289"
         id="text18490-5-8-7-5-6"><tspan
           sodipodi:role="line"
           id="tspan18488-1-3-5-35-0"
           style="font-style:normal;font-variant:normal;font-weight:normal;font-stretch:normal;font-size:4.93889px;font-family:Roboto;-inkscape-font-specification:Roboto;stroke-width:0.264583"
           x="138.42108"
           y="236.32289">8</tspan></text>
    </g>
    <g
       id="g12674-6"
       transform="translate(-5.8247059,-27.325007)">
      <circle
         style="fill:#ffffff;fill-opacity:0.995733;stroke:#1a1a1a;stroke-width:0.529167;stroke-linecap:round;stroke-linejoin:round;stroke-miterlimit:4;stroke-dasharray:none;stroke-opacity:0.999962;stop-color:#000000"
         id="path34152-3-6-3-7-2"
         cx="139.76071"
         cy="234.56728"
         r="3.0644836" />
      <text
         xml:space="preserve"
         style="font-style:normal;font-variant:normal;font-weight:normal;font-stretch:normal;font-size:4.93889px;line-height:1.25;font-family:Roboto;-inkscape-font-specification:Roboto;font-variant-ligatures:none;stroke-width:0.264583"
         x="138.42108"
         y="236.32289"
         id="text18490-5-8-7-5-61"><tspan
           sodipodi:role="line"
           id="tspan18488-1-3-5-35-8"
           style="font-style:normal;font-variant:normal;font-weight:normal;font-stretch:normal;font-size:4.93889px;font-family:Roboto;-inkscape-font-specification:Roboto;stroke-width:0.264583"
           x="138.42108"
           y="236.32289">8</tspan></text>
    </g>
    <g
       id="g12669-7"
       transform="translate(26.248693,-155.85851)">
      <circle
         style="fill:#ffffff;fill-opacity:0.995733;stroke:#1a1a1a;stroke-width:0.529167;stroke-linecap:round;stroke-linejoin:round;stroke-miterlimit:4;stroke-dasharray:none;stroke-opacity:0.999962;stop-color:#000000"
         id="path34152-3-6-3-7-9-9"
         cx="140.69232"
         cy="250.04001"
         r="3.0644836" />
      <text
         xml:space="preserve"
         style="font-style:normal;font-variant:normal;font-weight:normal;font-stretch:normal;font-size:4.93889px;line-height:1.25;font-family:Roboto;-inkscape-font-specification:Roboto;font-variant-ligatures:none;stroke-width:0.264583"
         x="139.35269"
         y="251.79562"
         id="text18490-5-8-7-5-1-2"><tspan
           sodipodi:role="line"
           id="tspan18488-1-3-5-35-2-0"
           style="font-style:normal;font-variant:normal;font-weight:normal;font-stretch:normal;font-size:4.93889px;font-family:Roboto;-inkscape-font-specification:Roboto;stroke-width:0.264583"
           x="139.35269"
           y="251.79562">9</tspan></text>
    </g>
    <g
       id="g21197-8-02-2-3"
       transform="translate(134.56804,12.276946)">
      <circle
         style="fill:#ffffff;fill-opacity:0.995733;stroke:#1a1a1a;stroke-width:0.529167;stroke-linecap:round;stroke-linejoin:round;stroke-miterlimit:4;stroke-dasharray:none;stroke-opacity:0.999962;stop-color:#000000"
         id="path34152-3-6-3-0-6"
         cx="-42.60902"
         cy="110.41943"
         r="3.0644836" />
      <text
         xml:space="preserve"
         style="font-style:normal;font-variant:normal;font-weight:normal;font-stretch:normal;font-size:4.93889px;line-height:1.25;font-family:Roboto;-inkscape-font-specification:Roboto;font-variant-ligatures:none;stroke-width:0.264583"
         x="-43.948647"
         y="112.17506"
         id="text18490-5-8-7-2-7"><tspan
           sodipodi:role="line"
           id="tspan18488-1-3-5-3-5"
           style="font-style:normal;font-variant:normal;font-weight:normal;font-stretch:normal;font-size:4.93889px;font-family:Roboto;-inkscape-font-specification:Roboto;stroke-width:0.264583"
           x="-43.948647"
           y="112.17506">7</tspan></text>
    </g>
    <g
       id="g21197-8-02-2-35"
       transform="translate(224.74063,12.454042)">
      <circle
         style="fill:#ffffff;fill-opacity:0.995733;stroke:#1a1a1a;stroke-width:0.529167;stroke-linecap:round;stroke-linejoin:round;stroke-miterlimit:4;stroke-dasharray:none;stroke-opacity:0.999962;stop-color:#000000"
         id="path34152-3-6-3-0-62"
         cx="-42.60902"
         cy="110.41943"
         r="3.0644836" />
      <text
         xml:space="preserve"
         style="font-style:normal;font-variant:normal;font-weight:normal;font-stretch:normal;font-size:4.93889px;line-height:1.25;font-family:Roboto;-inkscape-font-specification:Roboto;font-variant-ligatures:none;stroke-width:0.264583"
         x="-43.948647"
         y="112.17506"
         id="text18490-5-8-7-2-9"><tspan
           sodipodi:role="line"
           id="tspan18488-1-3-5-3-1"
           style="font-style:normal;font-variant:normal;font-weight:normal;font-stretch:normal;font-size:4.93889px;font-family:Roboto;-inkscape-font-specification:Roboto;stroke-width:0.264583"
           x="-43.948647"
           y="112.17506">7</tspan></text>
    </g>
    <g
       id="g12669-3-6"
       transform="translate(-7.5475988,-104.82186)">
      <circle
         style="fill:#ffffff;fill-opacity:0.995733;stroke:#1a1a1a;stroke-width:0.529167;stroke-linecap:round;stroke-linejoin:round;stroke-miterlimit:4;stroke-dasharray:none;stroke-opacity:0.999962;stop-color:#000000"
         id="path34152-3-6-3-7-9-6-2"
         cx="140.69232"
         cy="250.04001"
         r="3.0644836" />
      <text
         xml:space="preserve"
         style="font-style:normal;font-variant:normal;font-weight:normal;font-stretch:normal;font-size:3.52778px;line-height:1.25;font-family:Roboto;-inkscape-font-specification:Roboto;font-variant-ligatures:none;stroke-width:0.264583"
         x="138.67731"
         y="251.36682"
         id="text18490-5-8-7-5-1-7-9"><tspan
           sodipodi:role="line"
           id="tspan18488-1-3-5-35-2-5-1"
           style="font-style:normal;font-variant:normal;font-weight:normal;font-stretch:normal;font-size:3.52778px;font-family:Roboto;-inkscape-font-specification:Roboto;stroke-width:0.264583"
           x="138.67731"
           y="251.36682">10</tspan></text>
    </g>
    <g
       id="g12669-3-2"
       transform="translate(-71.861095,-105.55517)">
      <circle
         style="fill:#ffffff;fill-opacity:0.995733;stroke:#1a1a1a;stroke-width:0.529167;stroke-linecap:round;stroke-linejoin:round;stroke-miterlimit:4;stroke-dasharray:none;stroke-opacity:0.999962;stop-color:#000000"
         id="path34152-3-6-3-7-9-6-7"
         cx="140.69232"
         cy="250.04001"
         r="3.0644836" />
      <text
         xml:space="preserve"
         style="font-style:normal;font-variant:normal;font-weight:normal;font-stretch:normal;font-size:3.52778px;line-height:1.25;font-family:Roboto;-inkscape-font-specification:Roboto;font-variant-ligatures:none;stroke-width:0.264583"
         x="138.67731"
         y="251.36682"
         id="text18490-5-8-7-5-1-7-0"><tspan
           sodipodi:role="line"
           id="tspan18488-1-3-5-35-2-5-9"
           style="font-style:normal;font-variant:normal;font-weight:normal;font-stretch:normal;font-size:3.52778px;font-family:Roboto;-inkscape-font-specification:Roboto;stroke-width:0.264583"
           x="138.67731"
           y="251.36682">10</tspan></text>
    </g>
  </g>
</svg>
