<?xml version="1.0" encoding="UTF-8" standalone="no"?>
<!-- Created with Inkscape (http://www.inkscape.org/) -->

<svg
   width="210mm"
   height="297mm"
   viewBox="0 0 210 297"
   version="1.1"
   id="svg5"
   inkscape:version="1.1.2 (0a00cf5339, 2022-02-04)"
   sodipodi:docname="Deck-Plans.svg"
   inkscape:export-filename="/home/sam/rpg/ships-of-elite/Anaconda/Deck Plans/Deck-Plans.png"
   inkscape:export-xdpi="300"
   inkscape:export-ydpi="300"
   xmlns:inkscape="http://www.inkscape.org/namespaces/inkscape"
   xmlns:sodipodi="http://sodipodi.sourceforge.net/DTD/sodipodi-0.dtd"
   xmlns:xlink="http://www.w3.org/1999/xlink"
   xmlns="http://www.w3.org/2000/svg"
   xmlns:svg="http://www.w3.org/2000/svg">
  <sodipodi:namedview
     id="namedview7"
     pagecolor="#ffffff"
     bordercolor="#666666"
     borderopacity="1.0"
     inkscape:pageshadow="2"
     inkscape:pageopacity="0.0"
     inkscape:pagecheckerboard="0"
     inkscape:document-units="mm"
     showgrid="true"
     inkscape:zoom="1.1794893"
     inkscape:cx="464.60785"
     inkscape:cy="467.57523"
     inkscape:window-width="2560"
     inkscape:window-height="1403"
     inkscape:window-x="3760"
     inkscape:window-y="142"
     inkscape:window-maximized="1"
     inkscape:current-layer="layer1">
    <inkscape:grid
       type="xygrid"
       id="grid9"
       units="px"
       spacingx="8.4666667"
       spacingy="8.4666667" />
  </sodipodi:namedview>
  <defs
     id="defs2" />
  <g
     inkscape:label="Layer 1"
     inkscape:groupmode="layer"
     id="layer1">
    <image
       width="67.73333"
       height="186.26666"
       preserveAspectRatio="none"
       xlink:href="anaconda-deck-1-64px.png"
       id="image40"
       x="-296.33334"
       y="16.933338"
       style="stroke-width:12.0001"
       transform="rotate(-90)" />
    <image
       width="67.73333"
       height="186.26666"
       preserveAspectRatio="none"
       xlink:href="anaconda-deck-2-64px.png"
       id="image52"
       x="-245.53333"
       y="16.933338"
       style="stroke-width:12.0001"
       transform="rotate(-90)" />
    <image
       width="67.73333"
       height="186.26666"
       preserveAspectRatio="none"
       xlink:href="anaconda-deck-3-64px.png"
       id="image64"
       x="-186.26666"
       y="16.933338"
       style="stroke-width:12"
       transform="rotate(-90)" />
    <image
       width="67.733337"
       height="186.26666"
       preserveAspectRatio="none"
       xlink:href="anaconda-deck-4-64px.png"
       id="image76"
       x="-127.00001"
       y="16.933338"
       style="stroke-width:12"
       transform="rotate(-90)" />
    <image
       width="67.73333"
       height="186.26666"
       preserveAspectRatio="none"
       xlink:href="anaconda-deck-5-64px.png"
       id="image88"
       x="-76.199997"
       y="16.933338"
       style="stroke-width:12"
       transform="rotate(-90)" />
  </g>
</svg>
