<?xml version="1.0" encoding="UTF-8" standalone="no"?>
<!-- Created with Inkscape (http://www.inkscape.org/) -->

<svg
   width="210mm"
   height="297mm"
   viewBox="0 0 210 297"
   version="1.1"
   id="svg5"
   inkscape:version="1.1.2 (0a00cf5339, 2022-02-04)"
   sodipodi:docname="Boa-Deck-Plans-123.svg"
   inkscape:export-filename="/home/sam/rpg/ships-of-elite/Boa/Deck Plans/Boa-Deck-Plans-123.png"
   inkscape:export-xdpi="300"
   inkscape:export-ydpi="300"
   xmlns:inkscape="http://www.inkscape.org/namespaces/inkscape"
   xmlns:sodipodi="http://sodipodi.sourceforge.net/DTD/sodipodi-0.dtd"
   xmlns:xlink="http://www.w3.org/1999/xlink"
   xmlns="http://www.w3.org/2000/svg"
   xmlns:svg="http://www.w3.org/2000/svg">
  <sodipodi:namedview
     id="namedview7"
     pagecolor="#ffffff"
     bordercolor="#666666"
     borderopacity="1.0"
     inkscape:pageshadow="2"
     inkscape:pageopacity="0.0"
     inkscape:pagecheckerboard="0"
     inkscape:document-units="mm"
     showgrid="true"
     inkscape:zoom="0.83402488"
     inkscape:cx="276.97015"
     inkscape:cy="580.31842"
     inkscape:window-width="1515"
     inkscape:window-height="842"
     inkscape:window-x="1842"
     inkscape:window-y="403"
     inkscape:window-maximized="0"
     inkscape:current-layer="layer1">
    <inkscape:grid
       type="xygrid"
       id="grid60"
       units="px"
       spacingx="8.4666667"
       spacingy="8.4666667" />
  </sodipodi:namedview>
  <defs
     id="defs2" />
  <g
     inkscape:groupmode="layer"
     id="layer2"
     inkscape:label="Deck Plans"
     sodipodi:insensitive="true">
    <image
       width="118.53334"
       height="203.2"
       preserveAspectRatio="none"
       xlink:href="Boa-deck-1-256px.png"
       id="image433"
       x="-118.53335"
       y="3.8517878e-06"
       style="stroke-width:7.71429"
       transform="rotate(-90)" />
    <image
       width="118.53333"
       height="203.2"
       preserveAspectRatio="none"
       xlink:href="Boa-deck-2-256px.png"
       id="image445"
       x="-177.8"
       y="3.8517665e-06"
       style="stroke-width:7.71429"
       transform="rotate(-90)" />
    <image
       width="118.53333"
       height="203.20001"
       preserveAspectRatio="none"
       xlink:href="Boa-deck-3-256px.png"
       id="image457"
       x="-270.93332"
       y="-1.1407024e-05"
       style="stroke-width:7.71427"
       transform="rotate(-90)" />
  </g>
  <g
     inkscape:label="Layer 1"
     inkscape:groupmode="layer"
     id="layer1">
    <g
       id="g21187-4"
       transform="translate(84.191733,-19.804886)">
      <circle
         style="fill:#ffffff;fill-opacity:0.995733;stroke:#1a1a1a;stroke-width:0.529167;stroke-linecap:round;stroke-linejoin:round;stroke-miterlimit:4;stroke-dasharray:none;stroke-opacity:0.999962;stop-color:#000000"
         id="path34152-12"
         cx="-59.542351"
         cy="76.552757"
         r="3.0644836" />
      <text
         xml:space="preserve"
         style="font-style:normal;font-variant:normal;font-weight:normal;font-stretch:normal;font-size:4.93889px;line-height:1.25;font-family:Roboto;-inkscape-font-specification:Roboto;font-variant-ligatures:none;stroke-width:0.264583"
         x="-60.62635"
         y="78.316818"
         id="text18490-8"><tspan
           sodipodi:role="line"
           id="tspan18488-8"
           style="font-style:normal;font-variant:normal;font-weight:normal;font-stretch:normal;font-size:4.93889px;font-family:Roboto;-inkscape-font-specification:Roboto;stroke-width:0.264583"
           x="-60.62635"
           y="78.316818">1</tspan></text>
    </g>
    <g
       id="g21192-9"
       transform="translate(67.258402,-25.139036)">
      <circle
         style="fill:#ffffff;fill-opacity:0.995733;stroke:#1a1a1a;stroke-width:0.529167;stroke-linecap:round;stroke-linejoin:round;stroke-miterlimit:4;stroke-dasharray:none;stroke-opacity:0.999962;stop-color:#000000"
         id="path34152-2-2"
         cx="-42.60902"
         cy="93.486092"
         r="3.0644836" />
      <text
         xml:space="preserve"
         style="font-style:normal;font-variant:normal;font-weight:normal;font-stretch:normal;font-size:4.93889px;line-height:1.25;font-family:Roboto;-inkscape-font-specification:Roboto;font-variant-ligatures:none;stroke-width:0.264583"
         x="-44.017376"
         y="95.265831"
         id="text18490-9-8"><tspan
           sodipodi:role="line"
           id="tspan18488-4-8"
           style="font-style:normal;font-variant:normal;font-weight:normal;font-stretch:normal;font-size:4.93889px;font-family:Roboto;-inkscape-font-specification:Roboto;stroke-width:0.264583"
           x="-44.017376"
           y="95.265831">2</tspan></text>
    </g>
    <g
       id="g21197-8"
       transform="translate(67.258402,-30.473216)">
      <circle
         style="fill:#ffffff;fill-opacity:0.995733;stroke:#1a1a1a;stroke-width:0.529167;stroke-linecap:round;stroke-linejoin:round;stroke-miterlimit:4;stroke-dasharray:none;stroke-opacity:0.999962;stop-color:#000000"
         id="path34152-3-6"
         cx="-42.60902"
         cy="110.41943"
         r="3.0644836" />
      <text
         xml:space="preserve"
         style="font-style:normal;font-variant:normal;font-weight:normal;font-stretch:normal;font-size:4.93889px;line-height:1.25;font-family:Roboto;-inkscape-font-specification:Roboto;font-variant-ligatures:none;stroke-width:0.264583"
         x="-43.948647"
         y="112.17506"
         id="text18490-5-8"><tspan
           sodipodi:role="line"
           id="tspan18488-1-3"
           style="font-style:normal;font-variant:normal;font-weight:normal;font-stretch:normal;font-size:4.93889px;font-family:Roboto;-inkscape-font-specification:Roboto;stroke-width:0.264583"
           x="-43.948647"
           y="112.17506">3</tspan></text>
    </g>
    <text
       xml:space="preserve"
       style="font-size:4.9389px;line-height:1.25;font-family:Dhurjati;-inkscape-font-specification:Dhurjati;font-variant-ligatures:none;stroke-width:0.264583"
       x="32.557545"
       y="59.092228"
       id="text28401"><tspan
         sodipodi:role="line"
         id="tspan28399"
         style="font-style:normal;font-variant:normal;font-weight:normal;font-stretch:normal;font-family:Roboto;-inkscape-font-specification:Roboto;stroke-width:0.264583"
         x="32.557545"
         y="59.092228">Fuel</tspan></text>
    <text
       xml:space="preserve"
       style="font-size:4.9389px;line-height:1.25;font-family:Dhurjati;-inkscape-font-specification:Dhurjati;font-variant-ligatures:none;stroke-width:0.264583"
       x="32.678123"
       y="82.372833"
       id="text31639"><tspan
         sodipodi:role="line"
         id="tspan31637"
         style="font-style:normal;font-variant:normal;font-weight:normal;font-stretch:normal;font-family:Roboto;-inkscape-font-specification:Roboto;stroke-width:0.264583"
         x="32.678123"
         y="82.372833">Cargo Hatch/Ramp</tspan></text>
    <text
       xml:space="preserve"
       style="font-size:4.9389px;line-height:1.25;font-family:Dhurjati;-inkscape-font-specification:Dhurjati;font-variant-ligatures:none;stroke-width:0.264583"
       x="32.678123"
       y="70.377747"
       id="text34523"><tspan
         sodipodi:role="line"
         id="tspan34521"
         style="font-style:normal;font-variant:normal;font-weight:normal;font-stretch:normal;font-family:Roboto;-inkscape-font-specification:Roboto;stroke-width:0.264583"
         x="32.678123"
         y="70.377747">Cargo Holds</tspan></text>
    <g
       id="g21197-8-0"
       transform="translate(67.258402,-17.463244)">
      <circle
         style="fill:#ffffff;fill-opacity:0.995733;stroke:#1a1a1a;stroke-width:0.529167;stroke-linecap:round;stroke-linejoin:round;stroke-miterlimit:4;stroke-dasharray:none;stroke-opacity:0.999962;stop-color:#000000"
         id="path34152-3-6-9"
         cx="-42.60902"
         cy="110.41943"
         r="3.0644836" />
      <text
         xml:space="preserve"
         style="font-style:normal;font-variant:normal;font-weight:normal;font-stretch:normal;font-size:4.93889px;line-height:1.25;font-family:Roboto;-inkscape-font-specification:Roboto;font-variant-ligatures:none;stroke-width:0.264583"
         x="-43.948647"
         y="112.17506"
         id="text18490-5-8-3"><tspan
           sodipodi:role="line"
           id="tspan18488-1-3-6"
           style="font-style:normal;font-variant:normal;font-weight:normal;font-stretch:normal;font-size:4.93889px;font-family:Roboto;-inkscape-font-specification:Roboto;stroke-width:0.264583"
           x="-43.948647"
           y="112.17506">4</tspan></text>
    </g>
    <g
       id="g21197-8-06"
       transform="translate(67.258402,-5.5790543)">
      <circle
         style="fill:#ffffff;fill-opacity:0.995733;stroke:#1a1a1a;stroke-width:0.529167;stroke-linecap:round;stroke-linejoin:round;stroke-miterlimit:4;stroke-dasharray:none;stroke-opacity:0.999962;stop-color:#000000"
         id="path34152-3-6-2"
         cx="-42.60902"
         cy="110.41943"
         r="3.0644836" />
      <text
         xml:space="preserve"
         style="font-style:normal;font-variant:normal;font-weight:normal;font-stretch:normal;font-size:4.93889px;line-height:1.25;font-family:Roboto;-inkscape-font-specification:Roboto;font-variant-ligatures:none;stroke-width:0.264583"
         x="-43.948647"
         y="112.17506"
         id="text18490-5-8-6"><tspan
           sodipodi:role="line"
           id="tspan18488-1-3-1"
           style="font-style:normal;font-variant:normal;font-weight:normal;font-stretch:normal;font-size:4.93889px;font-family:Roboto;-inkscape-font-specification:Roboto;stroke-width:0.264583"
           x="-43.948647"
           y="112.17506">5</tspan></text>
    </g>
    <text
       xml:space="preserve"
       style="font-size:4.9389px;line-height:1.25;font-family:Dhurjati;-inkscape-font-specification:Dhurjati;font-variant-ligatures:none;stroke-width:0.264583"
       x="32.897575"
       y="94.947525"
       id="text28401-4"><tspan
         sodipodi:role="line"
         id="tspan28399-7"
         style="font-style:normal;font-variant:normal;font-weight:normal;font-stretch:normal;font-family:Roboto;-inkscape-font-specification:Roboto;stroke-width:0.264583"
         x="32.897575"
         y="94.947525">Airlocks</tspan></text>
    <text
       xml:space="preserve"
       style="font-size:4.9389px;line-height:1.25;font-family:Dhurjati;-inkscape-font-specification:Dhurjati;font-variant-ligatures:none;stroke-width:0.264583"
       x="32.557545"
       y="106.88774"
       id="text28401-6"><tspan
         sodipodi:role="line"
         id="tspan28399-5"
         style="font-style:normal;font-variant:normal;font-weight:normal;font-stretch:normal;font-family:Roboto;-inkscape-font-specification:Roboto;stroke-width:0.264583"
         x="32.557545"
         y="106.88774">Cargo shaft</tspan></text>
    <g
       id="g21187-4-3"
       transform="translate(181.26085,42.62142)">
      <circle
         style="fill:#ffffff;fill-opacity:0.995733;stroke:#1a1a1a;stroke-width:0.529167;stroke-linecap:round;stroke-linejoin:round;stroke-miterlimit:4;stroke-dasharray:none;stroke-opacity:0.999962;stop-color:#000000"
         id="path34152-12-6"
         cx="-59.542351"
         cy="76.552757"
         r="3.0644836" />
      <text
         xml:space="preserve"
         style="font-style:normal;font-variant:normal;font-weight:normal;font-stretch:normal;font-size:4.93889px;line-height:1.25;font-family:Roboto;-inkscape-font-specification:Roboto;font-variant-ligatures:none;stroke-width:0.264583"
         x="-60.62635"
         y="78.316818"
         id="text18490-8-7"><tspan
           sodipodi:role="line"
           id="tspan18488-8-5"
           style="font-style:normal;font-variant:normal;font-weight:normal;font-stretch:normal;font-size:4.93889px;font-family:Roboto;-inkscape-font-specification:Roboto;stroke-width:0.264583"
           x="-60.62635"
           y="78.316818">1</tspan></text>
    </g>
    <g
       id="g21187-4-3-3"
       transform="translate(208.50534,106.74939)">
      <circle
         style="fill:#ffffff;fill-opacity:0.995733;stroke:#1a1a1a;stroke-width:0.529167;stroke-linecap:round;stroke-linejoin:round;stroke-miterlimit:4;stroke-dasharray:none;stroke-opacity:0.999962;stop-color:#000000"
         id="path34152-12-6-6"
         cx="-59.542351"
         cy="76.552757"
         r="3.0644836" />
      <text
         xml:space="preserve"
         style="font-style:normal;font-variant:normal;font-weight:normal;font-stretch:normal;font-size:4.93889px;line-height:1.25;font-family:Roboto;-inkscape-font-specification:Roboto;font-variant-ligatures:none;stroke-width:0.264583"
         x="-60.62635"
         y="78.316818"
         id="text18490-8-7-7"><tspan
           sodipodi:role="line"
           id="tspan18488-8-5-5"
           style="font-style:normal;font-variant:normal;font-weight:normal;font-stretch:normal;font-size:4.93889px;font-family:Roboto;-inkscape-font-specification:Roboto;stroke-width:0.264583"
           x="-60.62635"
           y="78.316818">1</tspan></text>
    </g>
    <g
       id="g21187-4-3-3-3"
       transform="translate(212.57538,166.48824)">
      <circle
         style="fill:#ffffff;fill-opacity:0.995733;stroke:#1a1a1a;stroke-width:0.529167;stroke-linecap:round;stroke-linejoin:round;stroke-miterlimit:4;stroke-dasharray:none;stroke-opacity:0.999962;stop-color:#000000"
         id="path34152-12-6-6-6"
         cx="-59.542351"
         cy="76.552757"
         r="3.0644836" />
      <text
         xml:space="preserve"
         style="font-style:normal;font-variant:normal;font-weight:normal;font-stretch:normal;font-size:4.93889px;line-height:1.25;font-family:Roboto;-inkscape-font-specification:Roboto;font-variant-ligatures:none;stroke-width:0.264583"
         x="-60.62635"
         y="78.316818"
         id="text18490-8-7-7-7"><tspan
           sodipodi:role="line"
           id="tspan18488-8-5-5-5"
           style="font-style:normal;font-variant:normal;font-weight:normal;font-stretch:normal;font-size:4.93889px;font-family:Roboto;-inkscape-font-specification:Roboto;stroke-width:0.264583"
           x="-60.62635"
           y="78.316818">1</tspan></text>
    </g>
    <g
       id="g21192-9-3"
       transform="translate(194.70642,-32.947932)">
      <circle
         style="fill:#ffffff;fill-opacity:0.995733;stroke:#1a1a1a;stroke-width:0.529167;stroke-linecap:round;stroke-linejoin:round;stroke-miterlimit:4;stroke-dasharray:none;stroke-opacity:0.999962;stop-color:#000000"
         id="path34152-2-2-5"
         cx="-42.60902"
         cy="93.486092"
         r="3.0644836" />
      <text
         xml:space="preserve"
         style="font-style:normal;font-variant:normal;font-weight:normal;font-stretch:normal;font-size:4.93889px;line-height:1.25;font-family:Roboto;-inkscape-font-specification:Roboto;font-variant-ligatures:none;stroke-width:0.264583"
         x="-44.017376"
         y="95.265831"
         id="text18490-9-8-6"><tspan
           sodipodi:role="line"
           id="tspan18488-4-8-2"
           style="font-style:normal;font-variant:normal;font-weight:normal;font-stretch:normal;font-size:4.93889px;font-family:Roboto;-inkscape-font-specification:Roboto;stroke-width:0.264583"
           x="-44.017376"
           y="95.265831">2</tspan></text>
    </g>
    <g
       id="g21192-9-3-3"
       transform="translate(169.30642,119.45207)">
      <circle
         style="fill:#ffffff;fill-opacity:0.995733;stroke:#1a1a1a;stroke-width:0.529167;stroke-linecap:round;stroke-linejoin:round;stroke-miterlimit:4;stroke-dasharray:none;stroke-opacity:0.999962;stop-color:#000000"
         id="path34152-2-2-5-5"
         cx="-42.60902"
         cy="93.486092"
         r="3.0644836" />
      <text
         xml:space="preserve"
         style="font-style:normal;font-variant:normal;font-weight:normal;font-stretch:normal;font-size:4.93889px;line-height:1.25;font-family:Roboto;-inkscape-font-specification:Roboto;font-variant-ligatures:none;stroke-width:0.264583"
         x="-44.017376"
         y="95.265831"
         id="text18490-9-8-6-6"><tspan
           sodipodi:role="line"
           id="tspan18488-4-8-2-2"
           style="font-style:normal;font-variant:normal;font-weight:normal;font-stretch:normal;font-size:4.93889px;font-family:Roboto;-inkscape-font-specification:Roboto;stroke-width:0.264583"
           x="-44.017376"
           y="95.265831">2</tspan></text>
    </g>
    <g
       id="g21197-8-9"
       transform="translate(114.59762,77.389259)">
      <circle
         style="fill:#ffffff;fill-opacity:0.995733;stroke:#1a1a1a;stroke-width:0.529167;stroke-linecap:round;stroke-linejoin:round;stroke-miterlimit:4;stroke-dasharray:none;stroke-opacity:0.999962;stop-color:#000000"
         id="path34152-3-6-1"
         cx="-42.60902"
         cy="110.41943"
         r="3.0644836" />
      <text
         xml:space="preserve"
         style="font-style:normal;font-variant:normal;font-weight:normal;font-stretch:normal;font-size:4.93889px;line-height:1.25;font-family:Roboto;-inkscape-font-specification:Roboto;font-variant-ligatures:none;stroke-width:0.264583"
         x="-43.948647"
         y="112.17506"
         id="text18490-5-8-2"><tspan
           sodipodi:role="line"
           id="tspan18488-1-3-7"
           style="font-style:normal;font-variant:normal;font-weight:normal;font-stretch:normal;font-size:4.93889px;font-family:Roboto;-inkscape-font-specification:Roboto;stroke-width:0.264583"
           x="-43.948647"
           y="112.17506">3</tspan></text>
    </g>
    <g
       id="g21197-8-9-9"
       transform="translate(115.13936,124.93106)">
      <circle
         style="fill:#ffffff;fill-opacity:0.995733;stroke:#1a1a1a;stroke-width:0.529167;stroke-linecap:round;stroke-linejoin:round;stroke-miterlimit:4;stroke-dasharray:none;stroke-opacity:0.999962;stop-color:#000000"
         id="path34152-3-6-1-1"
         cx="-42.60902"
         cy="110.41943"
         r="3.0644836" />
      <text
         xml:space="preserve"
         style="font-style:normal;font-variant:normal;font-weight:normal;font-stretch:normal;font-size:4.93889px;line-height:1.25;font-family:Roboto;-inkscape-font-specification:Roboto;font-variant-ligatures:none;stroke-width:0.264583"
         x="-43.948647"
         y="112.17506"
         id="text18490-5-8-2-2"><tspan
           sodipodi:role="line"
           id="tspan18488-1-3-7-7"
           style="font-style:normal;font-variant:normal;font-weight:normal;font-stretch:normal;font-size:4.93889px;font-family:Roboto;-inkscape-font-specification:Roboto;stroke-width:0.264583"
           x="-43.948647"
           y="112.17506">3</tspan></text>
    </g>
    <text
       xml:space="preserve"
       style="font-style:normal;font-variant:normal;font-weight:bold;font-stretch:normal;font-size:4.9389px;line-height:1.25;font-family:Roboto;-inkscape-font-specification:'Roboto Bold';font-variant-ligatures:none;stroke-width:0.264583"
       x="108.66536"
       y="39.075371"
       id="text1293"><tspan
         sodipodi:role="line"
         id="tspan1291"
         style="font-style:normal;font-variant:normal;font-weight:bold;font-stretch:normal;font-family:Roboto;-inkscape-font-specification:'Roboto Bold';stroke-width:0.264583"
         x="108.66536"
         y="39.075371">Deck 1 (Lowest)</tspan></text>
    <text
       xml:space="preserve"
       style="font-style:normal;font-variant:normal;font-weight:bold;font-stretch:normal;font-size:4.9389px;line-height:1.25;font-family:Roboto;-inkscape-font-specification:'Roboto Bold';font-variant-ligatures:none;stroke-width:0.264583"
       x="110.68399"
       y="87.263443"
       id="text2683"><tspan
         sodipodi:role="line"
         id="tspan2681"
         style="font-style:normal;font-variant:normal;font-weight:bold;font-stretch:normal;font-family:Roboto;-inkscape-font-specification:'Roboto Bold';stroke-width:0.264583"
         x="110.68399"
         y="87.263443">Deck 2</tspan></text>
    <text
       xml:space="preserve"
       style="font-style:normal;font-variant:normal;font-weight:bold;font-stretch:normal;font-size:4.9389px;line-height:1.25;font-family:Roboto;-inkscape-font-specification:'Roboto Bold';font-variant-ligatures:none;stroke-width:0.264583"
       x="115.32609"
       y="166.41518"
       id="text3875"><tspan
         sodipodi:role="line"
         id="tspan3873"
         style="font-style:normal;font-variant:normal;font-weight:bold;font-stretch:normal;font-family:Roboto;-inkscape-font-specification:'Roboto Bold';stroke-width:0.264583"
         x="115.32609"
         y="166.41518">Deck 3</tspan></text>
    <g
       id="g21197-8-9-3"
       transform="translate(168.83006,-51.272578)">
      <circle
         style="fill:#ffffff;fill-opacity:0.995733;stroke:#1a1a1a;stroke-width:0.529167;stroke-linecap:round;stroke-linejoin:round;stroke-miterlimit:4;stroke-dasharray:none;stroke-opacity:0.999962;stop-color:#000000"
         id="path34152-3-6-1-6"
         cx="-42.60902"
         cy="110.41943"
         r="3.0644836" />
      <text
         xml:space="preserve"
         style="font-style:normal;font-variant:normal;font-weight:normal;font-stretch:normal;font-size:4.93889px;line-height:1.25;font-family:Roboto;-inkscape-font-specification:Roboto;font-variant-ligatures:none;stroke-width:0.264583"
         x="-43.948647"
         y="112.17506"
         id="text18490-5-8-2-7"><tspan
           sodipodi:role="line"
           id="tspan18488-1-3-7-5"
           style="font-style:normal;font-variant:normal;font-weight:normal;font-stretch:normal;font-size:4.93889px;font-family:Roboto;-inkscape-font-specification:Roboto;stroke-width:0.264583"
           x="-43.948647"
           y="112.17506">3</tspan></text>
    </g>
    <g
       id="g21197-8-0-3"
       transform="translate(194.97648,-38.622585)">
      <circle
         style="fill:#ffffff;fill-opacity:0.995733;stroke:#1a1a1a;stroke-width:0.529167;stroke-linecap:round;stroke-linejoin:round;stroke-miterlimit:4;stroke-dasharray:none;stroke-opacity:0.999962;stop-color:#000000"
         id="path34152-3-6-9-5"
         cx="-42.60902"
         cy="110.41943"
         r="3.0644836" />
      <text
         xml:space="preserve"
         style="font-style:normal;font-variant:normal;font-weight:normal;font-stretch:normal;font-size:4.93889px;line-height:1.25;font-family:Roboto;-inkscape-font-specification:Roboto;font-variant-ligatures:none;stroke-width:0.264583"
         x="-43.948647"
         y="112.17506"
         id="text18490-5-8-3-6"><tspan
           sodipodi:role="line"
           id="tspan18488-1-3-6-2"
           style="font-style:normal;font-variant:normal;font-weight:normal;font-stretch:normal;font-size:4.93889px;font-family:Roboto;-inkscape-font-specification:Roboto;stroke-width:0.264583"
           x="-43.948647"
           y="112.17506">4</tspan></text>
    </g>
    <g
       id="g21197-8-06-9"
       transform="translate(126.82136,100.87251)">
      <circle
         style="fill:#ffffff;fill-opacity:0.995733;stroke:#1a1a1a;stroke-width:0.529167;stroke-linecap:round;stroke-linejoin:round;stroke-miterlimit:4;stroke-dasharray:none;stroke-opacity:0.999962;stop-color:#000000"
         id="path34152-3-6-2-1"
         cx="-42.60902"
         cy="110.41943"
         r="3.0644836" />
      <text
         xml:space="preserve"
         style="font-style:normal;font-variant:normal;font-weight:normal;font-stretch:normal;font-size:4.93889px;line-height:1.25;font-family:Roboto;-inkscape-font-specification:Roboto;font-variant-ligatures:none;stroke-width:0.264583"
         x="-43.948647"
         y="112.17506"
         id="text18490-5-8-6-2"><tspan
           sodipodi:role="line"
           id="tspan18488-1-3-1-7"
           style="font-style:normal;font-variant:normal;font-weight:normal;font-stretch:normal;font-size:4.93889px;font-family:Roboto;-inkscape-font-specification:Roboto;stroke-width:0.264583"
           x="-43.948647"
           y="112.17506">5</tspan></text>
    </g>
  </g>
</svg>
